<?xml version="1.0" encoding="UTF-8" standalone="no"?>
<svg
   xmlns:dc="http://purl.org/dc/elements/1.1/"
   xmlns:cc="http://creativecommons.org/ns#"
   xmlns:rdf="http://www.w3.org/1999/02/22-rdf-syntax-ns#"
   xmlns:svg="http://www.w3.org/2000/svg"
   xmlns="http://www.w3.org/2000/svg"
   xmlns:sodipodi="http://sodipodi.sourceforge.net/DTD/sodipodi-0.dtd"
   xmlns:inkscape="http://www.inkscape.org/namespaces/inkscape"
   height="620"
   version="1.1"
   width="1666"
   id="svg2"
   inkscape:version="0.48.5 r10040"
   sodipodi:docname="class-diagram.svg">
  <metadata
     id="metadata798">
    <rdf:RDF>
      <cc:Work
         rdf:about="">
        <dc:format>image/svg+xml</dc:format>
        <dc:type
           rdf:resource="http://purl.org/dc/dcmitype/StillImage" />
      </cc:Work>
    </rdf:RDF>
  </metadata>
  <defs
     id="defs796" />
  <sodipodi:namedview
     pagecolor="#ffffff"
     bordercolor="#666666"
     borderopacity="1"
     objecttolerance="10"
     gridtolerance="10"
     guidetolerance="10"
     inkscape:pageopacity="0"
     inkscape:pageshadow="2"
     inkscape:window-width="1920"
     inkscape:window-height="1168"
     id="namedview794"
     showgrid="false"
     inkscape:zoom="0.73709484"
     inkscape:cx="795.29876"
     inkscape:cy="153.7906"
     inkscape:window-x="1366"
     inkscape:window-y="0"
     inkscape:window-maximized="1"
     inkscape:current-layer="svg2" />
  <polygon
     fill="#ffffff"
     points="1350,438 1512,438 1512,461 1561,461 1561,605 1350,605 1350,438"
     stroke="#ffffff"
     stroke-width="1"
     id="polygon4" />
  <rect
     fill="none"
     height="23"
     stroke="#000000"
     stroke-width="1"
     width="162"
     x="1350"
     y="438"
     id="rect6" />
  <text
     font-family="Dialog"
     font-size="12"
     x="1355"
     y="451"
     id="text8">
Herramientas cobertura</text>
  <rect
     fill="none"
     height="144"
     stroke="#000000"
     stroke-width="1"
     width="211"
     x="1350"
     y="461"
     id="rect10" />
  <polygon
     fill="#ffffff"
     points="1054,430 1228,430 1228,453 1277,453 1277,605 1054,605 1054,430"
     stroke="#ffffff"
     stroke-width="1"
     id="polygon12" />
  <rect
     height="23"
     width="122.51262"
     x="1054"
     y="430"
     id="rect14"
     style="fill:none;stroke:#000000;stroke-width:1;stroke-miterlimit:4;stroke-dasharray:none" />
  <text
     font-family="Dialog"
     font-size="12"
     x="1059"
     y="443"
     id="text16">
Herramientas PBT</text>
  <rect
     fill="none"
     height="152"
     stroke="#000000"
     stroke-width="1"
     width="223"
     x="1054"
     y="453"
     id="rect18" />
  <polygon
     fill="#ffffff"
     points="598,430 798,430 798,453 847,453 847,589 598,589 598,430"
     stroke="#ffffff"
     stroke-width="1"
     id="polygon20" />
  <rect
     fill="none"
     height="23"
     stroke="#000000"
     stroke-width="1"
     width="200"
     x="598"
     y="430"
     id="rect22" />
  <text
     font-family="Dialog"
     font-size="12"
     x="603"
     y="443"
     id="text24">
Herramientas pruebas Unidad</text>
  <rect
     fill="none"
     height="136"
     stroke="#000000"
     stroke-width="1"
     width="249"
     x="598"
     y="453"
     id="rect26" />
  <polygon
     fill="#ffffff"
     points="190,54 1548,54 1548,77 1597,77 1597,413 190,413 190,54"
     stroke="#ffffff"
     stroke-width="1"
     id="polygon28" />
  <rect
     height="23"
     width="83.524033"
     x="190"
     y="54"
     id="rect30"
     style="fill:none;stroke:#000000;stroke-width:1;stroke-miterlimit:4;stroke-dasharray:none" />
  <text
     font-family="Dialog"
     font-size="12"
     x="195"
     y="67"
     id="text32">
GamifiTEST</text>
  <rect
     fill="none"
     height="336"
     stroke="#000000"
     stroke-width="1"
     width="1407"
     x="190"
     y="77"
     id="rect34" />
  <rect
     fill="#ffffff"
     height="96"
     stroke="#ffffff"
     stroke-width="1"
     width="208"
     x="510"
     y="94"
     id="rect36" />
  <rect
     fill="none"
     height="96"
     stroke="#000000"
     stroke-width="1"
     width="208"
     x="510"
     y="94"
     id="rect38" />
  <text
     font-family="Dialog"
     font-size="12"
     x="573"
     y="107"
     id="text40">
+ GamifiTEST</text>
  <rect
     fill="#000000"
     height="1"
     stroke="#000000"
     stroke-width="1"
     width="208"
     x="510"
     y="117"
     id="rect42" />
  <text
     font-family="Dialog"
     font-size="12"
     x="514"
     y="131"
     id="text44">
+test(c : Component)</text>
  <text
     font-family="Dialog"
     font-size="12"
     x="514"
     y="147"
     id="text46">
+quickcheck(c : Component)</text>
  <text
     font-family="Dialog"
     font-size="12"
     x="514"
     y="163"
     id="text48">
+coverage(c : Component)</text>
  <text
     font-family="Dialog"
     font-size="12"
     x="514"
     y="179"
     id="text50">
~measure_and_report(d : Data)</text>
  <rect
     fill="#ffffff"
     height="48"
     stroke="#ffffff"
     stroke-width="1"
     width="254"
     x="589"
     y="350"
     id="rect52" />
  <rect
     fill="none"
     height="48"
     stroke="#000000"
     stroke-width="1"
     width="254"
     x="589"
     y="350"
     id="rect54" />
  <text
     font-family="Dialog"
     font-size="12"
     x="670"
     y="363"
     id="text56">
~ UnitWrapper</text>
  <rect
     fill="#000000"
     height="1"
     stroke="#000000"
     stroke-width="1"
     width="254"
     x="589"
     y="373"
     id="rect58" />
  <text
     font-family="Dialog"
     font-size="12"
     x="593"
     y="387"
     id="text60">
+process(c : Component) : TestResults</text>
  <rect
     fill="#ffffff"
     height="48"
     stroke="#ffffff"
     stroke-width="1"
     width="254"
     x="1046"
     y="350"
     id="rect62" />
  <rect
     fill="none"
     height="48"
     stroke="#000000"
     stroke-width="1"
     width="254"
     x="1046"
     y="350"
     id="rect64" />
  <text
     font-family="Dialog"
     font-size="12"
     x="1128"
     y="363"
     id="text66">
~ PBTWrapper</text>
  <rect
     fill="#000000"
     height="1"
     stroke="#000000"
     stroke-width="1"
     width="254"
     x="1046"
     y="373"
     id="rect68" />
  <text
     font-family="Dialog"
     font-size="12"
     x="1050"
     y="387"
     id="text70">
+process(c : Component) : TestResults</text>
  <rect
     fill="#ffffff"
     height="48"
     stroke="#ffffff"
     stroke-width="1"
     width="254"
     x="1334"
     y="350"
     id="rect72" />
  <rect
     fill="none"
     height="48"
     stroke="#000000"
     stroke-width="1"
     width="254"
     x="1334"
     y="350"
     id="rect74" />
  <text
     font-family="Dialog"
     font-size="12"
     x="1398"
     y="363"
     id="text76">
~ CoverageWrapper</text>
  <rect
     fill="#000000"
     height="1"
     stroke="#000000"
     stroke-width="1"
     width="254"
     x="1334"
     y="373"
     id="rect78" />
  <text
     font-family="Dialog"
     font-size="12"
     x="1338"
     y="387"
     id="text80">
+process(c : Component) : TestResults</text>
  <rect
     fill="#ffffff"
     height="48"
     stroke="#ffffff"
     stroke-width="1"
     width="144"
     x="622"
     y="471"
     id="rect82" />
  <rect
     fill="none"
     height="48"
     stroke="#000000"
     stroke-width="1"
     width="144"
     x="622"
     y="471"
     id="rect84" />
  <text
     font-family="Dialog"
     font-size="12"
     font-style="italic"
     x="671"
     y="484"
     id="text86">
+ xUnit</text>
  <rect
     fill="#000000"
     height="1"
     stroke="#000000"
     stroke-width="1"
     width="144"
     x="622"
     y="494"
     id="rect88" />
  <text
     font-family="Dialog"
     font-size="12"
     font-style="italic"
     x="626"
     y="508"
     id="text90">
+test(c : Component)</text>
  <rect
     fill="#ffffff"
     height="48"
     stroke="#ffffff"
     stroke-width="1"
     width="189"
     x="1062"
     y="470"
     id="rect92" />
  <rect
     fill="none"
     height="48"
     stroke="#000000"
     stroke-width="1"
     width="189"
     x="1062"
     y="470"
     id="rect94" />
  <text
     font-family="Dialog"
     font-size="12"
     font-style="italic"
     x="1127"
     y="483"
     id="text96">
+ xCheck</text>
  <rect
     fill="#000000"
     height="1"
     stroke="#000000"
     stroke-width="1"
     width="189"
     x="1062"
     y="493"
     id="rect98" />
  <text
     font-family="Dialog"
     font-size="12"
     font-style="italic"
     x="1066"
     y="507"
     id="text100">
+quickcheck(c : Component)</text>
  <rect
     fill="#ffffff"
     height="64"
     stroke="#ffffff"
     stroke-width="1"
     width="167"
     x="1374"
     y="478"
     id="rect102" />
  <rect
     fill="none"
     height="64"
     stroke="#000000"
     stroke-width="1"
     width="167"
     x="1374"
     y="478"
     id="rect104" />
  <text
     font-family="Dialog"
     font-size="12"
     font-style="italic"
     x="1417"
     y="491"
     id="text106">
+ xCoverage</text>
  <rect
     fill="#000000"
     height="1"
     stroke="#000000"
     stroke-width="1"
     width="167"
     x="1374"
     y="501"
     id="rect108" />
  <text
     font-family="Dialog"
     font-size="12"
     font-style="italic"
     x="1378"
     y="515"
     id="text110">
+compile(c : Component)</text>
  <text
     font-family="Dialog"
     font-size="12"
     font-style="italic"
     x="1378"
     y="531"
     id="text112">
+analyse(c : Component)</text>
  <rect
     fill="#ffffff"
     height="24"
     stroke="#ffffff"
     stroke-width="1"
     width="74"
     x="614"
     y="550"
     id="rect114" />
  <rect
     fill="none"
     height="24"
     stroke="#000000"
     stroke-width="1"
     width="74"
     x="614"
     y="550"
     id="rect116" />
  <text
     font-family="Dialog"
     font-size="12"
     x="630"
     y="563"
     id="text118">
+ JUnit</text>
  <rect
     fill="#ffffff"
     height="24"
     stroke="#ffffff"
     stroke-width="1"
     width="66"
     x="702"
     y="550"
     id="rect120" />
  <rect
     fill="none"
     height="24"
     stroke="#000000"
     stroke-width="1"
     width="66"
     x="702"
     y="550"
     id="rect122" />
  <text
     font-family="Dialog"
     font-size="12"
     x="711"
     y="563"
     id="text124">
+ eUnit</text>
  <rect
     fill="#ffffff"
     height="24"
     stroke="#ffffff"
     stroke-width="1"
     width="96"
     x="1062"
     y="542"
     id="rect126" />
  <rect
     fill="none"
     height="24"
     stroke="#000000"
     stroke-width="1"
     width="96"
     x="1062"
     y="542"
     id="rect128" />
  <text
     font-family="Dialog"
     font-size="12"
     x="1067"
     y="555"
     id="text130">
+ QuickCheck</text>
  <rect
     fill="#ffffff"
     height="24"
     stroke="#ffffff"
     stroke-width="1"
     width="72"
     x="1134"
     y="574"
     id="rect132" />
  <rect
     fill="none"
     height="24"
     stroke="#000000"
     stroke-width="1"
     width="72"
     x="1134"
     y="574"
     id="rect134" />
  <text
     font-family="Dialog"
     font-size="12"
     x="1142"
     y="587"
     id="text136">
+ PropEr</text>
  <rect
     fill="#ffffff"
     height="24"
     stroke="#ffffff"
     stroke-width="1"
     width="66"
     x="1198"
     y="542"
     id="rect138" />
  <rect
     fill="none"
     height="24"
     stroke="#000000"
     stroke-width="1"
     width="66"
     x="1198"
     y="542"
     id="rect140" />
  <text
     font-family="Dialog"
     font-size="12"
     x="1203"
     y="555"
     id="text142">
+ JCheck</text>
  <rect
     fill="#ffffff"
     height="24"
     stroke="#ffffff"
     stroke-width="1"
     width="66"
     x="1382"
     y="566"
     id="rect144" />
  <rect
     fill="none"
     height="24"
     stroke="#000000"
     stroke-width="1"
     width="66"
     x="1382"
     y="566"
     id="rect146" />
  <text
     font-family="Dialog"
     font-size="12"
     x="1391"
     y="579"
     id="text148">
+ cover</text>
  <rect
     fill="#ffffff"
     height="24"
     stroke="#ffffff"
     stroke-width="1"
     width="86"
     x="1462"
     y="566"
     id="rect150" />
  <rect
     fill="none"
     height="24"
     stroke="#000000"
     stroke-width="1"
     width="86"
     x="1462"
     y="566"
     id="rect152" />
  <text
     font-family="Dialog"
     font-size="12"
     x="1467"
     y="579"
     id="text154">
+ cobertura</text>
  <polyline
     fill="none"
     points="662,550 662,518"
     stroke="#000000"
     stroke-width="1"
     id="polyline156" />
  <polygon
     fill="#ffffff"
     points="662,518 669,530 655,530"
     stroke="#ffffff"
     stroke-width="1"
     id="polygon158" />
  <polygon
     fill="none"
     points="662,518 669,530 655,530"
     stroke="#000000"
     stroke-width="1"
     id="polygon160" />
  <polyline
     fill="none"
     points="734,550 734,518"
     stroke="#000000"
     stroke-width="1"
     id="polyline162" />
  <polygon
     fill="#ffffff"
     points="734,518 741,530 727,530"
     stroke="#ffffff"
     stroke-width="1"
     id="polygon164" />
  <polygon
     fill="none"
     points="734,518 741,530 727,530"
     stroke="#000000"
     stroke-width="1"
     id="polygon166" />
  <polyline
     fill="none"
     points="814,397 814,478 765,478"
     stroke="#000000"
     stroke-width="1"
     id="polyline168" />
  <line
     fill="#000000"
     stroke="#000000"
     stroke-width="1"
     x1="777"
     x2="765"
     y1="471"
     y2="478"
     id="line170" />
  <line
     fill="#000000"
     stroke="#000000"
     stroke-width="1"
     x1="777"
     x2="765"
     y1="485"
     y2="478"
     id="line172" />
  <text
     font-family="Dialog"
     font-size="12"
     x="737"
     y="462"
     id="text174" />
  <polyline
     fill="none"
     points="1110,542 1110,517"
     stroke="#000000"
     stroke-width="1"
     id="polyline176" />
  <polygon
     fill="#ffffff"
     points="1110,517 1117,529 1103,529"
     stroke="#ffffff"
     stroke-width="1"
     id="polygon178" />
  <polygon
     fill="none"
     points="1110,517 1117,529 1103,529"
     stroke="#000000"
     stroke-width="1"
     id="polygon180" />
  <polyline
     fill="none"
     points="1174,574 1174,517"
     stroke="#000000"
     stroke-width="1"
     id="polyline182" />
  <polygon
     fill="#ffffff"
     points="1174,517 1181,529 1167,529"
     stroke="#ffffff"
     stroke-width="1"
     id="polygon184" />
  <polygon
     fill="none"
     points="1174,517 1181,529 1167,529"
     stroke="#000000"
     stroke-width="1"
     id="polygon186" />
  <polyline
     fill="none"
     points="1230,542 1230,517"
     stroke="#000000"
     stroke-width="1"
     id="polyline188" />
  <polygon
     fill="#ffffff"
     points="1230,517 1237,529 1223,529"
     stroke="#ffffff"
     stroke-width="1"
     id="polygon190" />
  <polygon
     fill="none"
     points="1230,517 1237,529 1223,529"
     stroke="#000000"
     stroke-width="1"
     id="polygon192" />
  <polyline
     fill="none"
     points="1238,397 1238,470"
     stroke="#000000"
     stroke-width="1"
     id="polyline194" />
  <line
     fill="#000000"
     stroke="#000000"
     stroke-width="1"
     x1="1231"
     x2="1238"
     y1="458"
     y2="470"
     id="line196" />
  <line
     fill="#000000"
     stroke="#000000"
     stroke-width="1"
     x1="1245"
     x2="1238"
     y1="458"
     y2="470"
     id="line198" />
  <text
     font-family="Dialog"
     font-size="12"
     x="1254"
     y="438"
     id="text200" />
  <polyline
     fill="none"
     points="1414,566 1414,541"
     stroke="#000000"
     stroke-width="1"
     id="polyline202" />
  <polygon
     fill="#ffffff"
     points="1414,541 1421,553 1407,553"
     stroke="#ffffff"
     stroke-width="1"
     id="polygon204" />
  <polygon
     fill="none"
     points="1414,541 1421,553 1407,553"
     stroke="#000000"
     stroke-width="1"
     id="polygon206" />
  <polyline
     fill="none"
     points="1502,566 1502,541"
     stroke="#000000"
     stroke-width="1"
     id="polyline208" />
  <polygon
     fill="#ffffff"
     points="1502,541 1509,553 1495,553"
     stroke="#ffffff"
     stroke-width="1"
     id="polygon210" />
  <polygon
     fill="none"
     points="1502,541 1509,553 1495,553"
     stroke="#000000"
     stroke-width="1"
     id="polygon212" />
  <polyline
     fill="none"
     points="1526,397 1526,478"
     stroke="#000000"
     stroke-width="1"
     id="polyline214" />
  <line
     fill="#000000"
     stroke="#000000"
     stroke-width="1"
     x1="1519"
     x2="1526"
     y1="466"
     y2="478"
     id="line216" />
  <line
     fill="#000000"
     stroke="#000000"
     stroke-width="1"
     x1="1533"
     x2="1526"
     y1="466"
     y2="478"
     id="line218" />
  <text
     font-family="Dialog"
     font-size="12"
     x="1576"
     y="446"
     id="text220" />
  <rect
     fill="#ffffff"
     height="72"
     stroke="#ffffff"
     stroke-width="1"
     width="254"
     x="1046"
     y="126"
     id="rect222" />
  <rect
     fill="none"
     height="72"
     stroke="#000000"
     stroke-width="1"
     width="254"
     x="1046"
     y="126"
     id="rect224" />
  <text
     font-family="Dialog"
     font-size="12"
     x="1126"
     y="158"
     id="text226">
~ TestWrapper</text>
  <text
     font-family="Dialog"
     font-size="12"
     x="1138"
     y="140"
     id="text228">
«interface»</text>
  <rect
     fill="#000000"
     height="1"
     stroke="#000000"
     stroke-width="1"
     width="254"
     x="1046"
     y="168"
     id="rect230" />
  <text
     font-family="Dialog"
     font-size="12"
     x="1050"
     y="182"
     id="text232">
+process(c : Component) : TestResults</text>
  <line
     fill="#000000"
     stroke="#000000"
     stroke-width="1"
     x1="842"
     x2="846"
     y1="350"
     y2="347"
     id="line234" />
  <line
     fill="#000000"
     stroke="#000000"
     stroke-width="1"
     x1="850"
     x2="854"
     y1="344"
     y2="341"
     id="line236" />
  <line
     fill="#000000"
     stroke="#000000"
     stroke-width="1"
     x1="858"
     x2="862"
     y1="338"
     y2="335"
     id="line238" />
  <line
     fill="#000000"
     stroke="#000000"
     stroke-width="1"
     x1="866"
     x2="870"
     y1="332"
     y2="329"
     id="line240" />
  <line
     fill="#000000"
     stroke="#000000"
     stroke-width="1"
     x1="874"
     x2="878"
     y1="326"
     y2="323"
     id="line242" />
  <line
     fill="#000000"
     stroke="#000000"
     stroke-width="1"
     x1="882"
     x2="886"
     y1="320"
     y2="317"
     id="line244" />
  <line
     fill="#000000"
     stroke="#000000"
     stroke-width="1"
     x1="890"
     x2="894"
     y1="314"
     y2="311"
     id="line246" />
  <line
     fill="#000000"
     stroke="#000000"
     stroke-width="1"
     x1="898"
     x2="902"
     y1="308"
     y2="305"
     id="line248" />
  <line
     fill="#000000"
     stroke="#000000"
     stroke-width="1"
     x1="906"
     x2="910"
     y1="302"
     y2="299"
     id="line250" />
  <line
     fill="#000000"
     stroke="#000000"
     stroke-width="1"
     x1="914"
     x2="918"
     y1="296"
     y2="293"
     id="line252" />
  <line
     fill="#000000"
     stroke="#000000"
     stroke-width="1"
     x1="922"
     x2="926"
     y1="290"
     y2="287"
     id="line254" />
  <line
     fill="#000000"
     stroke="#000000"
     stroke-width="1"
     x1="930"
     x2="934"
     y1="284"
     y2="281"
     id="line256" />
  <line
     fill="#000000"
     stroke="#000000"
     stroke-width="1"
     x1="938"
     x2="942"
     y1="278"
     y2="275"
     id="line258" />
  <line
     fill="#000000"
     stroke="#000000"
     stroke-width="1"
     x1="946"
     x2="950"
     y1="272"
     y2="269"
     id="line260" />
  <line
     fill="#000000"
     stroke="#000000"
     stroke-width="1"
     x1="954"
     x2="958"
     y1="266"
     y2="263"
     id="line262" />
  <line
     fill="#000000"
     stroke="#000000"
     stroke-width="1"
     x1="962"
     x2="966"
     y1="260"
     y2="257"
     id="line264" />
  <line
     fill="#000000"
     stroke="#000000"
     stroke-width="1"
     x1="970"
     x2="974"
     y1="254"
     y2="251"
     id="line266" />
  <line
     fill="#000000"
     stroke="#000000"
     stroke-width="1"
     x1="978"
     x2="982"
     y1="248"
     y2="245"
     id="line268" />
  <line
     fill="#000000"
     stroke="#000000"
     stroke-width="1"
     x1="986"
     x2="990"
     y1="242"
     y2="239"
     id="line270" />
  <line
     fill="#000000"
     stroke="#000000"
     stroke-width="1"
     x1="994"
     x2="998"
     y1="236"
     y2="233"
     id="line272" />
  <line
     fill="#000000"
     stroke="#000000"
     stroke-width="1"
     x1="1002"
     x2="1006"
     y1="230"
     y2="227"
     id="line274" />
  <line
     fill="#000000"
     stroke="#000000"
     stroke-width="1"
     x1="1010"
     x2="1014"
     y1="224"
     y2="221"
     id="line276" />
  <line
     fill="#000000"
     stroke="#000000"
     stroke-width="1"
     x1="1018"
     x2="1022"
     y1="218"
     y2="215"
     id="line278" />
  <line
     fill="#000000"
     stroke="#000000"
     stroke-width="1"
     x1="1026"
     x2="1030"
     y1="212"
     y2="209"
     id="line280" />
  <line
     fill="#000000"
     stroke="#000000"
     stroke-width="1"
     x1="1034"
     x2="1038"
     y1="206"
     y2="203"
     id="line282" />
  <line
     fill="#000000"
     stroke="#000000"
     stroke-width="1"
     x1="1042"
     x2="1046"
     y1="200"
     y2="197"
     id="line284" />
  <polygon
     fill="#ffffff"
     points="1046,197 1040,209 1032,198"
     stroke="#ffffff"
     stroke-width="1"
     id="polygon286" />
  <polygon
     fill="none"
     points="1046,197 1040,209 1032,198"
     stroke="#000000"
     stroke-width="1"
     id="polygon288" />
  <line
     fill="#000000"
     stroke="#000000"
     stroke-width="1"
     x1="1174"
     x2="1174"
     y1="350"
     y2="345"
     id="line290" />
  <line
     fill="#000000"
     stroke="#000000"
     stroke-width="1"
     x1="1174"
     x2="1174"
     y1="340"
     y2="335"
     id="line292" />
  <line
     fill="#000000"
     stroke="#000000"
     stroke-width="1"
     x1="1174"
     x2="1174"
     y1="330"
     y2="325"
     id="line294" />
  <line
     fill="#000000"
     stroke="#000000"
     stroke-width="1"
     x1="1174"
     x2="1174"
     y1="320"
     y2="315"
     id="line296" />
  <line
     fill="#000000"
     stroke="#000000"
     stroke-width="1"
     x1="1174"
     x2="1174"
     y1="310"
     y2="305"
     id="line298" />
  <line
     fill="#000000"
     stroke="#000000"
     stroke-width="1"
     x1="1174"
     x2="1174"
     y1="300"
     y2="295"
     id="line300" />
  <line
     fill="#000000"
     stroke="#000000"
     stroke-width="1"
     x1="1174"
     x2="1174"
     y1="290"
     y2="285"
     id="line302" />
  <line
     fill="#000000"
     stroke="#000000"
     stroke-width="1"
     x1="1174"
     x2="1174"
     y1="280"
     y2="275"
     id="line304" />
  <line
     fill="#000000"
     stroke="#000000"
     stroke-width="1"
     x1="1174"
     x2="1174"
     y1="270"
     y2="265"
     id="line306" />
  <line
     fill="#000000"
     stroke="#000000"
     stroke-width="1"
     x1="1174"
     x2="1174"
     y1="260"
     y2="255"
     id="line308" />
  <line
     fill="#000000"
     stroke="#000000"
     stroke-width="1"
     x1="1174"
     x2="1174"
     y1="250"
     y2="245"
     id="line310" />
  <line
     fill="#000000"
     stroke="#000000"
     stroke-width="1"
     x1="1174"
     x2="1174"
     y1="240"
     y2="235"
     id="line312" />
  <line
     fill="#000000"
     stroke="#000000"
     stroke-width="1"
     x1="1174"
     x2="1174"
     y1="230"
     y2="225"
     id="line314" />
  <line
     fill="#000000"
     stroke="#000000"
     stroke-width="1"
     x1="1174"
     x2="1174"
     y1="220"
     y2="215"
     id="line316" />
  <line
     fill="#000000"
     stroke="#000000"
     stroke-width="1"
     x1="1174"
     x2="1174"
     y1="210"
     y2="205"
     id="line318" />
  <line
     fill="#000000"
     stroke="#000000"
     stroke-width="1"
     x1="1174"
     x2="1174"
     y1="200"
     y2="197"
     id="line320" />
  <polygon
     fill="#ffffff"
     points="1174,197 1181,209 1167,209"
     stroke="#ffffff"
     stroke-width="1"
     id="polygon322" />
  <polygon
     fill="none"
     points="1174,197 1181,209 1167,209"
     stroke="#000000"
     stroke-width="1"
     id="polygon324" />
  <line
     fill="#000000"
     stroke="#000000"
     stroke-width="1"
     x1="1334"
     x2="1333"
     y1="350"
     y2="346"
     id="line326" />
  <line
     fill="#000000"
     stroke="#000000"
     stroke-width="1"
     x1="1332"
     x2="1331"
     y1="341"
     y2="336"
     id="line328" />
  <line
     fill="#000000"
     stroke="#000000"
     stroke-width="1"
     x1="1330"
     x2="1329"
     y1="331"
     y2="326"
     id="line330" />
  <line
     fill="#000000"
     stroke="#000000"
     stroke-width="1"
     x1="1328"
     x2="1327"
     y1="321"
     y2="316"
     id="line332" />
  <line
     fill="#000000"
     stroke="#000000"
     stroke-width="1"
     x1="1326"
     x2="1324"
     y1="311"
     y2="306"
     id="line334" />
  <line
     fill="#000000"
     stroke="#000000"
     stroke-width="1"
     x1="1323"
     x2="1322"
     y1="301"
     y2="297"
     id="line336" />
  <line
     fill="#000000"
     stroke="#000000"
     stroke-width="1"
     x1="1321"
     x2="1320"
     y1="292"
     y2="287"
     id="line338" />
  <line
     fill="#000000"
     stroke="#000000"
     stroke-width="1"
     x1="1319"
     x2="1318"
     y1="282"
     y2="277"
     id="line340" />
  <line
     fill="#000000"
     stroke="#000000"
     stroke-width="1"
     x1="1317"
     x2="1315"
     y1="272"
     y2="267"
     id="line342" />
  <line
     fill="#000000"
     stroke="#000000"
     stroke-width="1"
     x1="1314"
     x2="1313"
     y1="262"
     y2="257"
     id="line344" />
  <line
     fill="#000000"
     stroke="#000000"
     stroke-width="1"
     x1="1312"
     x2="1311"
     y1="252"
     y2="248"
     id="line346" />
  <line
     fill="#000000"
     stroke="#000000"
     stroke-width="1"
     x1="1310"
     x2="1309"
     y1="243"
     y2="238"
     id="line348" />
  <line
     fill="#000000"
     stroke="#000000"
     stroke-width="1"
     x1="1308"
     x2="1306"
     y1="233"
     y2="228"
     id="line350" />
  <line
     fill="#000000"
     stroke="#000000"
     stroke-width="1"
     x1="1305"
     x2="1304"
     y1="223"
     y2="218"
     id="line352" />
  <line
     fill="#000000"
     stroke="#000000"
     stroke-width="1"
     x1="1303"
     x2="1302"
     y1="213"
     y2="208"
     id="line354" />
  <line
     fill="#000000"
     stroke="#000000"
     stroke-width="1"
     x1="1301"
     x2="1300"
     y1="203"
     y2="198"
     id="line356" />
  <polygon
     fill="#ffffff"
     points="1299,197 1308,207 1294,210"
     stroke="#ffffff"
     stroke-width="1"
     id="polygon358" />
  <polygon
     fill="none"
     points="1299,197 1308,207 1294,210"
     stroke="#000000"
     stroke-width="1"
     id="polygon360" />
  <rect
     fill="#ffffff"
     height="48"
     stroke="#ffffff"
     stroke-width="1"
     width="230"
     x="638"
     y="238"
     id="rect362" />
  <rect
     fill="none"
     height="48"
     stroke="#000000"
     stroke-width="1"
     width="230"
     x="638"
     y="238"
     id="rect364" />
  <text
     font-family="Dialog"
     font-size="12"
     x="696"
     y="251"
     id="text366">
+ GamifiTESTbrain</text>
  <rect
     fill="#000000"
     height="1"
     stroke="#000000"
     stroke-width="1"
     width="230"
     x="638"
     y="261"
     id="rect368" />
  <text
     font-family="Dialog"
     font-size="12"
     x="642"
     y="275"
     id="text370">
+measure(t : TestResults) : Metrics</text>
  <rect
     fill="#ffffff"
     height="48"
     stroke="#ffffff"
     stroke-width="1"
     width="135"
     x="478"
     y="238"
     id="rect372" />
  <rect
     fill="none"
     height="48"
     stroke="#000000"
     stroke-width="1"
     width="135"
     x="478"
     y="238"
     id="rect374" />
  <text
     font-family="Dialog"
     font-size="12"
     x="499"
     y="251"
     id="text376">
+ GamifiTESTio</text>
  <rect
     fill="#000000"
     height="1"
     stroke="#000000"
     stroke-width="1"
     width="135"
     x="478"
     y="261"
     id="rect378" />
  <text
     font-family="Dialog"
     font-size="12"
     x="482"
     y="275"
     id="text380">
+report(m : Metrics)</text>
  <line
     fill="#000000"
     stroke="#000000"
     stroke-width="1"
     x1="717"
     x2="722"
     y1="134"
     y2="134"
     id="line382" />
  <line
     fill="#000000"
     stroke="#000000"
     stroke-width="1"
     x1="727"
     x2="732"
     y1="134"
     y2="134"
     id="line384" />
  <line
     fill="#000000"
     stroke="#000000"
     stroke-width="1"
     x1="737"
     x2="742"
     y1="134"
     y2="134"
     id="line386" />
  <line
     fill="#000000"
     stroke="#000000"
     stroke-width="1"
     x1="747"
     x2="752"
     y1="134"
     y2="134"
     id="line388" />
  <line
     fill="#000000"
     stroke="#000000"
     stroke-width="1"
     x1="757"
     x2="762"
     y1="134"
     y2="134"
     id="line390" />
  <line
     fill="#000000"
     stroke="#000000"
     stroke-width="1"
     x1="767"
     x2="772"
     y1="134"
     y2="134"
     id="line392" />
  <line
     fill="#000000"
     stroke="#000000"
     stroke-width="1"
     x1="777"
     x2="782"
     y1="134"
     y2="134"
     id="line394" />
  <line
     fill="#000000"
     stroke="#000000"
     stroke-width="1"
     x1="787"
     x2="792"
     y1="134"
     y2="134"
     id="line396" />
  <line
     fill="#000000"
     stroke="#000000"
     stroke-width="1"
     x1="797"
     x2="802"
     y1="134"
     y2="134"
     id="line398" />
  <line
     fill="#000000"
     stroke="#000000"
     stroke-width="1"
     x1="807"
     x2="812"
     y1="134"
     y2="134"
     id="line400" />
  <line
     fill="#000000"
     stroke="#000000"
     stroke-width="1"
     x1="817"
     x2="822"
     y1="134"
     y2="134"
     id="line402" />
  <line
     fill="#000000"
     stroke="#000000"
     stroke-width="1"
     x1="827"
     x2="832"
     y1="134"
     y2="134"
     id="line404" />
  <line
     fill="#000000"
     stroke="#000000"
     stroke-width="1"
     x1="837"
     x2="842"
     y1="134"
     y2="134"
     id="line406" />
  <line
     fill="#000000"
     stroke="#000000"
     stroke-width="1"
     x1="847"
     x2="852"
     y1="134"
     y2="134"
     id="line408" />
  <line
     fill="#000000"
     stroke="#000000"
     stroke-width="1"
     x1="857"
     x2="862"
     y1="134"
     y2="134"
     id="line410" />
  <line
     fill="#000000"
     stroke="#000000"
     stroke-width="1"
     x1="867"
     x2="872"
     y1="134"
     y2="134"
     id="line412" />
  <line
     fill="#000000"
     stroke="#000000"
     stroke-width="1"
     x1="877"
     x2="882"
     y1="134"
     y2="134"
     id="line414" />
  <line
     fill="#000000"
     stroke="#000000"
     stroke-width="1"
     x1="887"
     x2="892"
     y1="134"
     y2="134"
     id="line416" />
  <line
     fill="#000000"
     stroke="#000000"
     stroke-width="1"
     x1="897"
     x2="902"
     y1="134"
     y2="134"
     id="line418" />
  <line
     fill="#000000"
     stroke="#000000"
     stroke-width="1"
     x1="907"
     x2="912"
     y1="134"
     y2="134"
     id="line420" />
  <line
     fill="#000000"
     stroke="#000000"
     stroke-width="1"
     x1="917"
     x2="922"
     y1="134"
     y2="134"
     id="line422" />
  <line
     fill="#000000"
     stroke="#000000"
     stroke-width="1"
     x1="927"
     x2="932"
     y1="134"
     y2="134"
     id="line424" />
  <line
     fill="#000000"
     stroke="#000000"
     stroke-width="1"
     x1="937"
     x2="942"
     y1="134"
     y2="134"
     id="line426" />
  <line
     fill="#000000"
     stroke="#000000"
     stroke-width="1"
     x1="947"
     x2="952"
     y1="134"
     y2="134"
     id="line428" />
  <line
     fill="#000000"
     stroke="#000000"
     stroke-width="1"
     x1="957"
     x2="962"
     y1="134"
     y2="134"
     id="line430" />
  <line
     fill="#000000"
     stroke="#000000"
     stroke-width="1"
     x1="967"
     x2="972"
     y1="134"
     y2="134"
     id="line432" />
  <line
     fill="#000000"
     stroke="#000000"
     stroke-width="1"
     x1="977"
     x2="982"
     y1="134"
     y2="134"
     id="line434" />
  <line
     fill="#000000"
     stroke="#000000"
     stroke-width="1"
     x1="987"
     x2="992"
     y1="134"
     y2="134"
     id="line436" />
  <line
     fill="#000000"
     stroke="#000000"
     stroke-width="1"
     x1="997"
     x2="1002"
     y1="134"
     y2="134"
     id="line438" />
  <line
     fill="#000000"
     stroke="#000000"
     stroke-width="1"
     x1="1007"
     x2="1012"
     y1="134"
     y2="134"
     id="line440" />
  <line
     fill="#000000"
     stroke="#000000"
     stroke-width="1"
     x1="1017"
     x2="1022"
     y1="134"
     y2="134"
     id="line442" />
  <line
     fill="#000000"
     stroke="#000000"
     stroke-width="1"
     x1="1027"
     x2="1032"
     y1="134"
     y2="134"
     id="line444" />
  <line
     fill="#000000"
     stroke="#000000"
     stroke-width="1"
     x1="1037"
     x2="1042"
     y1="134"
     y2="134"
     id="line446" />
  <line
     fill="#000000"
     stroke="#000000"
     stroke-width="1"
     x1="1034"
     x2="1046"
     y1="141"
     y2="134"
     id="line448" />
  <line
     fill="#000000"
     stroke="#000000"
     stroke-width="1"
     x1="1034"
     x2="1046"
     y1="127"
     y2="134"
     id="line450" />
  <text
     font-family="Dialog"
     font-size="12"
     x="859"
     y="121"
     id="text452">
«uses»</text>
  <line
     fill="#000000"
     stroke="#000000"
     stroke-width="1"
     x1="662"
     x2="662"
     y1="189"
     y2="194"
     id="line454" />
  <line
     fill="#000000"
     stroke="#000000"
     stroke-width="1"
     x1="662"
     x2="662"
     y1="199"
     y2="204"
     id="line456" />
  <line
     fill="#000000"
     stroke="#000000"
     stroke-width="1"
     x1="662"
     x2="662"
     y1="209"
     y2="214"
     id="line458" />
  <line
     fill="#000000"
     stroke="#000000"
     stroke-width="1"
     x1="662"
     x2="662"
     y1="219"
     y2="224"
     id="line460" />
  <line
     fill="#000000"
     stroke="#000000"
     stroke-width="1"
     x1="662"
     x2="662"
     y1="229"
     y2="234"
     id="line462" />
  <line
     fill="#000000"
     stroke="#000000"
     stroke-width="1"
     x1="655"
     x2="662"
     y1="226"
     y2="238"
     id="line464" />
  <line
     fill="#000000"
     stroke="#000000"
     stroke-width="1"
     x1="669"
     x2="662"
     y1="226"
     y2="238"
     id="line466" />
  <text
     font-family="Dialog"
     font-size="12"
     x="687"
     y="230"
     id="text468">
«uses»</text>
  <line
     fill="#000000"
     stroke="#000000"
     stroke-width="1"
     x1="558"
     x2="558"
     y1="189"
     y2="194"
     id="line470" />
  <line
     fill="#000000"
     stroke="#000000"
     stroke-width="1"
     x1="558"
     x2="558"
     y1="199"
     y2="204"
     id="line472" />
  <line
     fill="#000000"
     stroke="#000000"
     stroke-width="1"
     x1="558"
     x2="558"
     y1="209"
     y2="214"
     id="line474" />
  <line
     fill="#000000"
     stroke="#000000"
     stroke-width="1"
     x1="558"
     x2="558"
     y1="219"
     y2="224"
     id="line476" />
  <line
     fill="#000000"
     stroke="#000000"
     stroke-width="1"
     x1="558"
     x2="558"
     y1="229"
     y2="234"
     id="line478" />
  <line
     fill="#000000"
     stroke="#000000"
     stroke-width="1"
     x1="551"
     x2="558"
     y1="226"
     y2="238"
     id="line480" />
  <line
     fill="#000000"
     stroke="#000000"
     stroke-width="1"
     x1="565"
     x2="558"
     y1="226"
     y2="238"
     id="line482" />
  <text
     font-family="Dialog"
     font-size="12"
     x="490"
     y="217"
     id="text484">
«uses»</text>
  <polygon
     fill="#ffffff"
     points="86,454 226,454 226,477 275,477 275,549 86,549 86,454"
     stroke="#ffffff"
     stroke-width="1"
     id="polygon486" />
  <rect
     fill="none"
     height="23"
     stroke="#000000"
     stroke-width="1"
     width="140"
     x="86"
     y="454"
     id="rect488" />
  <text
     font-family="Dialog"
     font-size="12"
     x="91"
     y="467"
     id="text490">
Gamification SERVER</text>
  <rect
     fill="none"
     height="72"
     stroke="#000000"
     stroke-width="1"
     width="189"
     x="86"
     y="477"
     id="rect492" />
  <line
     fill="#000000"
     stroke="#000000"
     stroke-width="1"
     x1="478"
     x2="475"
     y1="285"
     y2="288"
     id="line494" />
  <line
     fill="#000000"
     stroke="#000000"
     stroke-width="1"
     x1="471"
     x2="468"
     y1="291"
     y2="295"
     id="line496" />
  <line
     fill="#000000"
     stroke="#000000"
     stroke-width="1"
     x1="464"
     x2="460"
     y1="298"
     y2="302"
     id="line498" />
  <line
     fill="#000000"
     stroke="#000000"
     stroke-width="1"
     x1="457"
     x2="453"
     y1="305"
     y2="309"
     id="line500" />
  <line
     fill="#000000"
     stroke="#000000"
     stroke-width="1"
     x1="449"
     x2="446"
     y1="312"
     y2="316"
     id="line502" />
  <line
     fill="#000000"
     stroke="#000000"
     stroke-width="1"
     x1="442"
     x2="439"
     y1="319"
     y2="322"
     id="line504" />
  <line
     fill="#000000"
     stroke="#000000"
     stroke-width="1"
     x1="435"
     x2="431"
     y1="326"
     y2="329"
     id="line506" />
  <line
     fill="#000000"
     stroke="#000000"
     stroke-width="1"
     x1="428"
     x2="424"
     y1="333"
     y2="336"
     id="line508" />
  <line
     fill="#000000"
     stroke="#000000"
     stroke-width="1"
     x1="420"
     x2="417"
     y1="340"
     y2="343"
     id="line510" />
  <line
     fill="#000000"
     stroke="#000000"
     stroke-width="1"
     x1="413"
     x2="409"
     y1="347"
     y2="350"
     id="line512" />
  <line
     fill="#000000"
     stroke="#000000"
     stroke-width="1"
     x1="406"
     x2="402"
     y1="354"
     y2="357"
     id="line514" />
  <line
     fill="#000000"
     stroke="#000000"
     stroke-width="1"
     x1="399"
     x2="395"
     y1="360"
     y2="364"
     id="line516" />
  <line
     fill="#000000"
     stroke="#000000"
     stroke-width="1"
     x1="391"
     x2="388"
     y1="367"
     y2="371"
     id="line518" />
  <line
     fill="#000000"
     stroke="#000000"
     stroke-width="1"
     x1="384"
     x2="380"
     y1="374"
     y2="378"
     id="line520" />
  <line
     fill="#000000"
     stroke="#000000"
     stroke-width="1"
     x1="377"
     x2="373"
     y1="381"
     y2="385"
     id="line522" />
  <line
     fill="#000000"
     stroke="#000000"
     stroke-width="1"
     x1="370"
     x2="366"
     y1="388"
     y2="392"
     id="line524" />
  <line
     fill="#000000"
     stroke="#000000"
     stroke-width="1"
     x1="362"
     x2="359"
     y1="395"
     y2="398"
     id="line526" />
  <line
     fill="#000000"
     stroke="#000000"
     stroke-width="1"
     x1="355"
     x2="351"
     y1="402"
     y2="405"
     id="line528" />
  <line
     fill="#000000"
     stroke="#000000"
     stroke-width="1"
     x1="348"
     x2="344"
     y1="409"
     y2="412"
     id="line530" />
  <line
     fill="#000000"
     stroke="#000000"
     stroke-width="1"
     x1="340"
     x2="337"
     y1="416"
     y2="419"
     id="line532" />
  <line
     fill="#000000"
     stroke="#000000"
     stroke-width="1"
     x1="333"
     x2="330"
     y1="423"
     y2="426"
     id="line534" />
  <line
     fill="#000000"
     stroke="#000000"
     stroke-width="1"
     x1="326"
     x2="322"
     y1="430"
     y2="433"
     id="line536" />
  <line
     fill="#000000"
     stroke="#000000"
     stroke-width="1"
     x1="319"
     x2="315"
     y1="436"
     y2="440"
     id="line538" />
  <line
     fill="#000000"
     stroke="#000000"
     stroke-width="1"
     x1="311"
     x2="308"
     y1="443"
     y2="447"
     id="line540" />
  <line
     fill="#000000"
     stroke="#000000"
     stroke-width="1"
     x1="304"
     x2="300"
     y1="450"
     y2="454"
     id="line542" />
  <line
     fill="#000000"
     stroke="#000000"
     stroke-width="1"
     x1="297"
     x2="293"
     y1="457"
     y2="461"
     id="line544" />
  <line
     fill="#000000"
     stroke="#000000"
     stroke-width="1"
     x1="290"
     x2="286"
     y1="464"
     y2="468"
     id="line546" />
  <line
     fill="#000000"
     stroke="#000000"
     stroke-width="1"
     x1="282"
     x2="279"
     y1="471"
     y2="474"
     id="line548" />
  <line
     fill="#000000"
     stroke="#000000"
     stroke-width="1"
     x1="279"
     x2="276"
     y1="463"
     y2="477"
     id="line550" />
  <line
     fill="#000000"
     stroke="#000000"
     stroke-width="1"
     x1="289"
     x2="276"
     y1="473"
     y2="477"
     id="line552" />
  <text
     font-family="Dialog"
     font-size="12"
     x="306"
     y="345"
     id="text554">
«request/send»</text>
  <rect
     fill="#ffffff"
     height="24"
     stroke="#ffffff"
     stroke-width="1"
     width="99"
     x="902"
     y="366"
     id="rect556" />
  <rect
     fill="none"
     height="24"
     stroke="#000000"
     stroke-width="1"
     width="99"
     x="902"
     y="366"
     id="rect558" />
  <text
     font-family="Dialog"
     font-size="12"
     x="907"
     y="379"
     id="text560">
+ eUnitCollect</text>
  <rect
     fill="#ffffff"
     height="43"
     stroke="#ffffff"
     stroke-width="1"
     width="107"
     x="878"
     y="542"
     id="rect562" />
  <rect
     fill="none"
     height="43"
     stroke="#000000"
     stroke-width="1"
     width="107"
     x="878"
     y="542"
     id="rect564" />
  <text
     font-family="Dialog"
     font-size="12"
     x="883"
     y="574"
     id="text566">
+ eUnitListener</text>
  <text
     font-family="Dialog"
     font-size="12"
     x="896"
     y="556"
     id="text568">
«interface»</text>
  <polyline
     fill="none"
     points="767,565 878,565"
     stroke="#000000"
     stroke-width="1"
     id="polyline570" />
  <line
     fill="#000000"
     stroke="#000000"
     stroke-width="1"
     x1="866"
     x2="878"
     y1="572"
     y2="565"
     id="line572" />
  <line
     fill="#000000"
     stroke="#000000"
     stroke-width="1"
     x1="866"
     x2="878"
     y1="558"
     y2="565"
     id="line574" />
  <text
     font-family="Dialog"
     font-size="12"
     x="791"
     y="545"
     id="text576" />
  <text
     font-family="Dialog"
     font-size="12"
     x="852"
     y="560"
     id="text578">
1..*</text>
  <line
     fill="#000000"
     stroke="#000000"
     stroke-width="1"
     x1="950"
     x2="950"
     y1="389"
     y2="394"
     id="line580" />
  <line
     fill="#000000"
     stroke="#000000"
     stroke-width="1"
     x1="950"
     x2="950"
     y1="399"
     y2="404"
     id="line582" />
  <line
     fill="#000000"
     stroke="#000000"
     stroke-width="1"
     x1="950"
     x2="950"
     y1="409"
     y2="414"
     id="line584" />
  <line
     fill="#000000"
     stroke="#000000"
     stroke-width="1"
     x1="950"
     x2="950"
     y1="419"
     y2="424"
     id="line586" />
  <line
     fill="#000000"
     stroke="#000000"
     stroke-width="1"
     x1="950"
     x2="950"
     y1="429"
     y2="434"
     id="line588" />
  <line
     fill="#000000"
     stroke="#000000"
     stroke-width="1"
     x1="950"
     x2="950"
     y1="439"
     y2="444"
     id="line590" />
  <line
     fill="#000000"
     stroke="#000000"
     stroke-width="1"
     x1="950"
     x2="950"
     y1="449"
     y2="454"
     id="line592" />
  <line
     fill="#000000"
     stroke="#000000"
     stroke-width="1"
     x1="950"
     x2="950"
     y1="459"
     y2="464"
     id="line594" />
  <line
     fill="#000000"
     stroke="#000000"
     stroke-width="1"
     x1="950"
     x2="950"
     y1="469"
     y2="474"
     id="line596" />
  <line
     fill="#000000"
     stroke="#000000"
     stroke-width="1"
     x1="950"
     x2="950"
     y1="479"
     y2="484"
     id="line598" />
  <line
     fill="#000000"
     stroke="#000000"
     stroke-width="1"
     x1="950"
     x2="950"
     y1="489"
     y2="494"
     id="line600" />
  <line
     fill="#000000"
     stroke="#000000"
     stroke-width="1"
     x1="950"
     x2="950"
     y1="499"
     y2="504"
     id="line602" />
  <line
     fill="#000000"
     stroke="#000000"
     stroke-width="1"
     x1="950"
     x2="950"
     y1="509"
     y2="514"
     id="line604" />
  <line
     fill="#000000"
     stroke="#000000"
     stroke-width="1"
     x1="950"
     x2="950"
     y1="519"
     y2="524"
     id="line606" />
  <line
     fill="#000000"
     stroke="#000000"
     stroke-width="1"
     x1="950"
     x2="950"
     y1="529"
     y2="534"
     id="line608" />
  <line
     fill="#000000"
     stroke="#000000"
     stroke-width="1"
     x1="950"
     x2="950"
     y1="539"
     y2="542"
     id="line610" />
  <polygon
     fill="#ffffff"
     points="950,542 943,530 957,530"
     stroke="#ffffff"
     stroke-width="1"
     id="polygon612" />
  <polygon
     fill="none"
     points="950,542 943,530 957,530"
     stroke="#000000"
     stroke-width="1"
     id="polygon614" />
  <line
     fill="#000000"
     stroke="#000000"
     stroke-width="1"
     x1="902"
     x2="897"
     y1="374"
     y2="374"
     id="line616" />
  <line
     fill="#000000"
     stroke="#000000"
     stroke-width="1"
     x1="892"
     x2="887"
     y1="374"
     y2="374"
     id="line618" />
  <line
     fill="#000000"
     stroke="#000000"
     stroke-width="1"
     x1="882"
     x2="877"
     y1="374"
     y2="374"
     id="line620" />
  <line
     fill="#000000"
     stroke="#000000"
     stroke-width="1"
     x1="872"
     x2="867"
     y1="374"
     y2="374"
     id="line622" />
  <line
     fill="#000000"
     stroke="#000000"
     stroke-width="1"
     x1="862"
     x2="857"
     y1="374"
     y2="374"
     id="line624" />
  <line
     fill="#000000"
     stroke="#000000"
     stroke-width="1"
     x1="852"
     x2="847"
     y1="374"
     y2="374"
     id="line626" />
  <line
     fill="#000000"
     stroke="#000000"
     stroke-width="1"
     x1="854"
     x2="842"
     y1="367"
     y2="374"
     id="line628" />
  <line
     fill="#000000"
     stroke="#000000"
     stroke-width="1"
     x1="854"
     x2="842"
     y1="381"
     y2="374"
     id="line630" />
  <text
     font-family="Dialog"
     font-size="12"
     x="849"
     y="361"
     id="text632">
«send»</text>
  <polygon
     fill="#ffffff"
     points="526,14 595,14 605,24 605,37 526,37 526,14"
     stroke="#ffffff"
     stroke-width="1"
     id="polygon634" />
  <polyline
     fill="none"
     points="526,14 595,14 605,24 605,37 526,37 526,14"
     stroke="#000000"
     stroke-width="1"
     id="polyline636" />
  <polygon
     fill="#ffffff"
     points="595,14 605,24 595,24 595,14"
     stroke="#ffffff"
     stroke-width="1"
     id="polygon638" />
  <polyline
     fill="none"
     points="595,14 605,24 595,24 595,14"
     stroke="#000000"
     stroke-width="1"
     id="polyline640" />
  <text
     font-family="Dialog"
     font-size="12"
     x="529"
     y="29"
     id="text642">
Facade</text>
  <line
     fill="#000000"
     stroke="#000000"
     stroke-width="1"
     x1="550"
     x2="550"
     y1="37"
     y2="42"
     id="line644" />
  <line
     fill="#000000"
     stroke="#000000"
     stroke-width="1"
     x1="550"
     x2="550"
     y1="47"
     y2="52"
     id="line646" />
  <line
     fill="#000000"
     stroke="#000000"
     stroke-width="1"
     x1="550"
     x2="550"
     y1="57"
     y2="62"
     id="line648" />
  <line
     fill="#000000"
     stroke="#000000"
     stroke-width="1"
     x1="550"
     x2="550"
     y1="67"
     y2="72"
     id="line650" />
  <line
     fill="#000000"
     stroke="#000000"
     stroke-width="1"
     x1="550"
     x2="550"
     y1="77"
     y2="82"
     id="line652" />
  <line
     fill="#000000"
     stroke="#000000"
     stroke-width="1"
     x1="550"
     x2="550"
     y1="87"
     y2="92"
     id="line654" />
  <rect
     fill="#ffffff"
     height="48"
     stroke="#ffffff"
     stroke-width="1"
     width="143"
     x="246"
     y="158"
     id="rect656" />
  <rect
     fill="none"
     height="48"
     stroke="#000000"
     stroke-width="1"
     width="143"
     x="246"
     y="158"
     id="rect658" />
  <text
     font-family="Dialog"
     font-size="12"
     x="251"
     y="171"
     id="text660">
+ GamifiTESTdaemon</text>
  <rect
     fill="#000000"
     height="1"
     stroke="#000000"
     stroke-width="1"
     width="143"
     x="246"
     y="181"
     id="rect662" />
  <text
     font-family="Dialog"
     font-size="12"
     x="250"
     y="195"
     id="text664">
+report(d : Data)</text>
  <rect
     fill="#ffffff"
     height="24"
     stroke="#ffffff"
     stroke-width="1"
     width="157"
     x="246"
     y="94"
     id="rect666" />
  <rect
     fill="none"
     height="24"
     stroke="#000000"
     stroke-width="1"
     width="157"
     x="246"
     y="94"
     id="rect668" />
  <text
     font-family="Dialog"
     font-size="12"
     x="251"
     y="107"
     id="text670">
+ GamifiTESTsupervisor</text>
  <polygon
     fill="#ffffff"
     points="86,158 151,158 161,168 161,185 86,185 86,158"
     stroke="#ffffff"
     stroke-width="1"
     id="polygon672" />
  <polyline
     fill="none"
     points="86,158 151,158 161,168 161,185 86,185 86,158"
     stroke="#000000"
     stroke-width="1"
     id="polyline674" />
  <polygon
     fill="#ffffff"
     points="151,158 161,168 151,168 151,158"
     stroke="#ffffff"
     stroke-width="1"
     id="polygon676" />
  <polyline
     fill="none"
     points="151,158 161,168 151,168 151,158"
     stroke="#000000"
     stroke-width="1"
     id="polyline678" />
  <text
     font-family="Dialog"
     font-size="12"
     x="89"
     y="173"
     id="text680">
Facade</text>
  <line
     fill="#000000"
     stroke="#000000"
     stroke-width="1"
     x1="161"
     x2="166"
     y1="169"
     y2="169"
     id="line682" />
  <line
     fill="#000000"
     stroke="#000000"
     stroke-width="1"
     x1="171"
     x2="176"
     y1="169"
     y2="169"
     id="line684" />
  <line
     fill="#000000"
     stroke="#000000"
     stroke-width="1"
     x1="181"
     x2="186"
     y1="169"
     y2="169"
     id="line686" />
  <line
     fill="#000000"
     stroke="#000000"
     stroke-width="1"
     x1="191"
     x2="196"
     y1="169"
     y2="169"
     id="line688" />
  <line
     fill="#000000"
     stroke="#000000"
     stroke-width="1"
     x1="201"
     x2="206"
     y1="169"
     y2="169"
     id="line690" />
  <line
     fill="#000000"
     stroke="#000000"
     stroke-width="1"
     x1="211"
     x2="216"
     y1="169"
     y2="169"
     id="line692" />
  <line
     fill="#000000"
     stroke="#000000"
     stroke-width="1"
     x1="221"
     x2="226"
     y1="169"
     y2="169"
     id="line694" />
  <line
     fill="#000000"
     stroke="#000000"
     stroke-width="1"
     x1="231"
     x2="236"
     y1="169"
     y2="169"
     id="line696" />
  <line
     fill="#000000"
     stroke="#000000"
     stroke-width="1"
     x1="241"
     x2="246"
     y1="169"
     y2="169"
     id="line698" />
  <line
     fill="#000000"
     stroke="#000000"
     stroke-width="1"
     x1="388"
     x2="393"
     y1="174"
     y2="174"
     id="line700" />
  <line
     fill="#000000"
     stroke="#000000"
     stroke-width="1"
     x1="398"
     x2="403"
     y1="174"
     y2="174"
     id="line702" />
  <line
     fill="#000000"
     stroke="#000000"
     stroke-width="1"
     x1="408"
     x2="413"
     y1="174"
     y2="174"
     id="line704" />
  <line
     fill="#000000"
     stroke="#000000"
     stroke-width="1"
     x1="418"
     x2="423"
     y1="174"
     y2="174"
     id="line706" />
  <line
     fill="#000000"
     stroke="#000000"
     stroke-width="1"
     x1="428"
     x2="433"
     y1="174"
     y2="174"
     id="line708" />
  <line
     fill="#000000"
     stroke="#000000"
     stroke-width="1"
     x1="438"
     x2="443"
     y1="174"
     y2="174"
     id="line710" />
  <line
     fill="#000000"
     stroke="#000000"
     stroke-width="1"
     x1="448"
     x2="453"
     y1="174"
     y2="174"
     id="line712" />
  <line
     fill="#000000"
     stroke="#000000"
     stroke-width="1"
     x1="458"
     x2="463"
     y1="174"
     y2="174"
     id="line714" />
  <line
     fill="#000000"
     stroke="#000000"
     stroke-width="1"
     x1="468"
     x2="473"
     y1="174"
     y2="174"
     id="line716" />
  <line
     fill="#000000"
     stroke="#000000"
     stroke-width="1"
     x1="478"
     x2="483"
     y1="174"
     y2="174"
     id="line718" />
  <line
     fill="#000000"
     stroke="#000000"
     stroke-width="1"
     x1="488"
     x2="493"
     y1="174"
     y2="174"
     id="line720" />
  <line
     fill="#000000"
     stroke="#000000"
     stroke-width="1"
     x1="498"
     x2="503"
     y1="174"
     y2="174"
     id="line722" />
  <line
     fill="#000000"
     stroke="#000000"
     stroke-width="1"
     x1="508"
     x2="510"
     y1="174"
     y2="174"
     id="line724" />
  <line
     fill="#000000"
     stroke="#000000"
     stroke-width="1"
     x1="498"
     x2="510"
     y1="181"
     y2="174"
     id="line726" />
  <line
     fill="#000000"
     stroke="#000000"
     stroke-width="1"
     x1="498"
     x2="510"
     y1="167"
     y2="174"
     id="line728" />
  <text
     font-family="Dialog"
     font-size="12"
     x="427"
     y="161"
     id="text730">
«uses»</text>
  <line
     fill="#000000"
     stroke="#000000"
     stroke-width="1"
     x1="326"
     x2="326"
     y1="117"
     y2="122"
     id="line732" />
  <line
     fill="#000000"
     stroke="#000000"
     stroke-width="1"
     x1="326"
     x2="326"
     y1="127"
     y2="132"
     id="line734" />
  <line
     fill="#000000"
     stroke="#000000"
     stroke-width="1"
     x1="326"
     x2="326"
     y1="137"
     y2="142"
     id="line736" />
  <line
     fill="#000000"
     stroke="#000000"
     stroke-width="1"
     x1="326"
     x2="326"
     y1="147"
     y2="152"
     id="line738" />
  <line
     fill="#000000"
     stroke="#000000"
     stroke-width="1"
     x1="326"
     x2="326"
     y1="157"
     y2="158"
     id="line740" />
  <line
     fill="#000000"
     stroke="#000000"
     stroke-width="1"
     x1="319"
     x2="326"
     y1="146"
     y2="158"
     id="line742" />
  <line
     fill="#000000"
     stroke="#000000"
     stroke-width="1"
     x1="333"
     x2="326"
     y1="146"
     y2="158"
     id="line744" />
  <text
     font-family="Dialog"
     font-size="12"
     x="338"
     y="140"
     id="text746">
«monitors»</text>
  <polygon
     fill="#ffffff"
     points="14,246 108,246 108,269 157,269 157,345 14,345 14,246"
     stroke="#ffffff"
     stroke-width="1"
     id="polygon748" />
  <rect
     fill="none"
     height="23"
     stroke="#000000"
     stroke-width="1"
     width="94"
     x="14"
     y="246"
     id="rect750" />
  <text
     font-family="Dialog"
     font-size="12"
     x="19"
     y="259"
     id="text752">
JUnitWrapper</text>
  <rect
     fill="none"
     height="76"
     stroke="#000000"
     stroke-width="1"
     width="143"
     x="14"
     y="269"
     id="rect754" />
  <line
     fill="#000000"
     stroke="#000000"
     stroke-width="1"
     x1="158"
     x2="162"
     y1="246"
     y2="244"
     id="line756" />
  <line
     fill="#000000"
     stroke="#000000"
     stroke-width="1"
     x1="167"
     x2="171"
     y1="242"
     y2="240"
     id="line758" />
  <line
     fill="#000000"
     stroke="#000000"
     stroke-width="1"
     x1="176"
     x2="180"
     y1="238"
     y2="236"
     id="line760" />
  <line
     fill="#000000"
     stroke="#000000"
     stroke-width="1"
     x1="185"
     x2="189"
     y1="234"
     y2="232"
     id="line762" />
  <line
     fill="#000000"
     stroke="#000000"
     stroke-width="1"
     x1="194"
     x2="198"
     y1="230"
     y2="227"
     id="line764" />
  <line
     fill="#000000"
     stroke="#000000"
     stroke-width="1"
     x1="203"
     x2="207"
     y1="225"
     y2="223"
     id="line766" />
  <line
     fill="#000000"
     stroke="#000000"
     stroke-width="1"
     x1="212"
     x2="216"
     y1="221"
     y2="219"
     id="line768" />
  <line
     fill="#000000"
     stroke="#000000"
     stroke-width="1"
     x1="221"
     x2="226"
     y1="217"
     y2="215"
     id="line770" />
  <line
     fill="#000000"
     stroke="#000000"
     stroke-width="1"
     x1="230"
     x2="235"
     y1="213"
     y2="211"
     id="line772" />
  <line
     fill="#000000"
     stroke="#000000"
     stroke-width="1"
     x1="239"
     x2="244"
     y1="208"
     y2="206"
     id="line774" />
  <line
     fill="#000000"
     stroke="#000000"
     stroke-width="1"
     x1="238"
     x2="246"
     y1="216"
     y2="205"
     id="line776" />
  <line
     fill="#000000"
     stroke="#000000"
     stroke-width="1"
     x1="232"
     x2="246"
     y1="203"
     y2="205"
     id="line778" />
  <text
     font-size="12"
     x="130.42395"
     y="236.65742"
     id="text780"
     style="font-size:12px;font-family:Dialog">«uses»</text>
  <rect
     fill="#ffffff"
     height="24"
     stroke="#ffffff"
     stroke-width="1"
     width="81"
     x="46"
     y="294"
     id="rect782" />
  <rect
     fill="none"
     height="24"
     stroke="#000000"
     stroke-width="1"
     width="81"
     x="46"
     y="294"
     id="rect784" />
  <text
     font-family="Dialog"
     font-size="12"
     x="51"
     y="307"
     id="text786">
+ JUnitCore</text>
  <rect
     fill="#ffffff"
     height="24"
     stroke="#ffffff"
     stroke-width="1"
     width="98"
     x="126"
     y="502"
     id="rect788" />
  <rect
     fill="none"
     height="24"
     stroke="#000000"
     stroke-width="1"
     width="98"
     x="126"
     y="502"
     id="rect790" />
  <text
     font-family="Dialog"
     font-size="12"
     x="131"
     y="515"
     id="text792">
+ REST server</text>
  <line
     style="fill:#000000;stroke:#000000;stroke-width:1"
     x1="139.31601"
     x2="143.31601"
     y1="255.58203"
     y2="253.58203"
     id="line756-7" />
  <line
     style="fill:#000000;stroke:#000000;stroke-width:1"
     x1="148.31601"
     x2="152.31601"
     y1="251.58203"
     y2="249.58203"
     id="line758-0" />
  <line
     style="fill:#000000;stroke:#000000;stroke-width:1"
     x1="121.089"
     x2="125.089"
     y1="264.21585"
     y2="262.21585"
     id="line756-5" />
  <line
     style="fill:#000000;stroke:#000000;stroke-width:1"
     x1="130.089"
     x2="134.08902"
     y1="260.21585"
     y2="258.21585"
     id="line758-4" />
</svg>
