<?xml version="1.0" encoding="UTF-8" standalone="no"?>
<svg
   xmlns:dc="http://purl.org/dc/elements/1.1/"
   xmlns:cc="http://creativecommons.org/ns#"
   xmlns:rdf="http://www.w3.org/1999/02/22-rdf-syntax-ns#"
   xmlns:svg="http://www.w3.org/2000/svg"
   xmlns="http://www.w3.org/2000/svg"
   xmlns:sodipodi="http://sodipodi.sourceforge.net/DTD/sodipodi-0.dtd"
   xmlns:inkscape="http://www.inkscape.org/namespaces/inkscape"
   height="576"
   version="1.1"
   width="1357"
   id="svg2"
   inkscape:version="0.48.5 r10040"
   sodipodi:docname="sequence-diagram.svg"
   inkscape:export-filename="/home/lcastro/Investigacion/Proxectos/INNTERCONECTA-2013_GOAL/trabajo/gamifiTEST/doc/sequence-diagram.png"
   inkscape:export-xdpi="150"
   inkscape:export-ydpi="150">
  <metadata
     id="metadata836">
    <rdf:RDF>
      <cc:Work
         rdf:about="">
        <dc:format>image/svg+xml</dc:format>
        <dc:type
           rdf:resource="http://purl.org/dc/dcmitype/StillImage" />
        <dc:title></dc:title>
      </cc:Work>
    </rdf:RDF>
  </metadata>
  <defs
     id="defs834" />
  <sodipodi:namedview
     pagecolor="#ffffff"
     bordercolor="#666666"
     borderopacity="1"
     objecttolerance="10"
     gridtolerance="10"
     guidetolerance="10"
     inkscape:pageopacity="0"
     inkscape:pageshadow="2"
     inkscape:window-width="1920"
     inkscape:window-height="1168"
     id="namedview832"
     showgrid="false"
     inkscape:zoom="0.90493736"
     inkscape:cx="680.20451"
     inkscape:cy="255.6643"
     inkscape:window-x="1366"
     inkscape:window-y="0"
     inkscape:window-maximized="1"
     inkscape:current-layer="svg2" />
  <line
     fill="#000000"
     stroke="#000000"
     stroke-width="1"
     x1="89"
     x2="89"
     y1="63"
     y2="68"
     id="line4" />
  <line
     fill="#000000"
     stroke="#000000"
     stroke-width="1"
     x1="89"
     x2="89"
     y1="73"
     y2="78"
     id="line6" />
  <line
     fill="#000000"
     stroke="#000000"
     stroke-width="1"
     x1="89"
     x2="89"
     y1="83"
     y2="88"
     id="line8" />
  <line
     fill="#000000"
     stroke="#000000"
     stroke-width="1"
     x1="89"
     x2="89"
     y1="93"
     y2="98"
     id="line10" />
  <line
     fill="#000000"
     stroke="#000000"
     stroke-width="1"
     x1="89"
     x2="89"
     y1="103"
     y2="108"
     id="line12" />
  <line
     fill="#000000"
     stroke="#000000"
     stroke-width="1"
     x1="89"
     x2="89"
     y1="113"
     y2="118"
     id="line14" />
  <line
     fill="#000000"
     stroke="#000000"
     stroke-width="1"
     x1="89"
     x2="89"
     y1="123"
     y2="128"
     id="line16" />
  <line
     fill="#000000"
     stroke="#000000"
     stroke-width="1"
     x1="89"
     x2="89"
     y1="133"
     y2="138"
     id="line18" />
  <line
     fill="#000000"
     stroke="#000000"
     stroke-width="1"
     x1="89"
     x2="89"
     y1="143"
     y2="148"
     id="line20" />
  <line
     fill="#000000"
     stroke="#000000"
     stroke-width="1"
     x1="89"
     x2="89"
     y1="153"
     y2="158"
     id="line22" />
  <line
     fill="#000000"
     stroke="#000000"
     stroke-width="1"
     x1="89"
     x2="89"
     y1="163"
     y2="168"
     id="line24" />
  <line
     fill="#000000"
     stroke="#000000"
     stroke-width="1"
     x1="89"
     x2="89"
     y1="173"
     y2="178"
     id="line26" />
  <line
     fill="#000000"
     stroke="#000000"
     stroke-width="1"
     x1="89"
     x2="89"
     y1="183"
     y2="188"
     id="line28" />
  <line
     fill="#000000"
     stroke="#000000"
     stroke-width="1"
     x1="89"
     x2="89"
     y1="193"
     y2="198"
     id="line30" />
  <line
     fill="#000000"
     stroke="#000000"
     stroke-width="1"
     x1="89"
     x2="89"
     y1="203"
     y2="208"
     id="line32" />
  <line
     fill="#000000"
     stroke="#000000"
     stroke-width="1"
     x1="89"
     x2="89"
     y1="213"
     y2="218"
     id="line34" />
  <line
     fill="#000000"
     stroke="#000000"
     stroke-width="1"
     x1="89"
     x2="89"
     y1="223"
     y2="228"
     id="line36" />
  <line
     fill="#000000"
     stroke="#000000"
     stroke-width="1"
     x1="89"
     x2="89"
     y1="233"
     y2="238"
     id="line38" />
  <line
     fill="#000000"
     stroke="#000000"
     stroke-width="1"
     x1="89"
     x2="89"
     y1="243"
     y2="248"
     id="line40" />
  <line
     fill="#000000"
     stroke="#000000"
     stroke-width="1"
     x1="89"
     x2="89"
     y1="253"
     y2="258"
     id="line42" />
  <line
     fill="#000000"
     stroke="#000000"
     stroke-width="1"
     x1="89"
     x2="89"
     y1="263"
     y2="268"
     id="line44" />
  <line
     fill="#000000"
     stroke="#000000"
     stroke-width="1"
     x1="89"
     x2="89"
     y1="273"
     y2="278"
     id="line46" />
  <line
     fill="#000000"
     stroke="#000000"
     stroke-width="1"
     x1="89"
     x2="89"
     y1="283"
     y2="288"
     id="line48" />
  <line
     fill="#000000"
     stroke="#000000"
     stroke-width="1"
     x1="89"
     x2="89"
     y1="293"
     y2="298"
     id="line50" />
  <line
     fill="#000000"
     stroke="#000000"
     stroke-width="1"
     x1="89"
     x2="89"
     y1="303"
     y2="308"
     id="line52" />
  <line
     fill="#000000"
     stroke="#000000"
     stroke-width="1"
     x1="89"
     x2="89"
     y1="313"
     y2="318"
     id="line54" />
  <line
     fill="#000000"
     stroke="#000000"
     stroke-width="1"
     x1="89"
     x2="89"
     y1="323"
     y2="328"
     id="line56" />
  <line
     fill="#000000"
     stroke="#000000"
     stroke-width="1"
     x1="89"
     x2="89"
     y1="333"
     y2="338"
     id="line58" />
  <line
     fill="#000000"
     stroke="#000000"
     stroke-width="1"
     x1="89"
     x2="89"
     y1="343"
     y2="348"
     id="line60" />
  <line
     fill="#000000"
     stroke="#000000"
     stroke-width="1"
     x1="89"
     x2="89"
     y1="353"
     y2="358"
     id="line62" />
  <line
     fill="#000000"
     stroke="#000000"
     stroke-width="1"
     x1="89"
     x2="89"
     y1="363"
     y2="368"
     id="line64" />
  <line
     fill="#000000"
     stroke="#000000"
     stroke-width="1"
     x1="89"
     x2="89"
     y1="373"
     y2="378"
     id="line66" />
  <line
     fill="#000000"
     stroke="#000000"
     stroke-width="1"
     x1="89"
     x2="89"
     y1="383"
     y2="388"
     id="line68" />
  <line
     fill="#000000"
     stroke="#000000"
     stroke-width="1"
     x1="89"
     x2="89"
     y1="393"
     y2="398"
     id="line70" />
  <line
     fill="#000000"
     stroke="#000000"
     stroke-width="1"
     x1="89"
     x2="89"
     y1="403"
     y2="408"
     id="line72" />
  <line
     fill="#000000"
     stroke="#000000"
     stroke-width="1"
     x1="89"
     x2="89"
     y1="413"
     y2="418"
     id="line74" />
  <line
     fill="#000000"
     stroke="#000000"
     stroke-width="1"
     x1="89"
     x2="89"
     y1="423"
     y2="428"
     id="line76" />
  <line
     fill="#000000"
     stroke="#000000"
     stroke-width="1"
     x1="89"
     x2="89"
     y1="433"
     y2="438"
     id="line78" />
  <line
     fill="#000000"
     stroke="#000000"
     stroke-width="1"
     x1="89"
     x2="89"
     y1="443"
     y2="448"
     id="line80" />
  <line
     fill="#000000"
     stroke="#000000"
     stroke-width="1"
     x1="89"
     x2="89"
     y1="453"
     y2="458"
     id="line82" />
  <line
     fill="#000000"
     stroke="#000000"
     stroke-width="1"
     x1="89"
     x2="89"
     y1="463"
     y2="468"
     id="line84" />
  <line
     fill="#000000"
     stroke="#000000"
     stroke-width="1"
     x1="89"
     x2="89"
     y1="473"
     y2="478"
     id="line86" />
  <line
     fill="#000000"
     stroke="#000000"
     stroke-width="1"
     x1="89"
     x2="89"
     y1="483"
     y2="488"
     id="line88" />
  <line
     fill="#000000"
     stroke="#000000"
     stroke-width="1"
     x1="89"
     x2="89"
     y1="493"
     y2="498"
     id="line90" />
  <line
     fill="#000000"
     stroke="#000000"
     stroke-width="1"
     x1="89"
     x2="89"
     y1="503"
     y2="508"
     id="line92" />
  <line
     fill="#000000"
     stroke="#000000"
     stroke-width="1"
     x1="89"
     x2="89"
     y1="513"
     y2="518"
     id="line94" />
  <line
     fill="#000000"
     stroke="#000000"
     stroke-width="1"
     x1="89"
     x2="89"
     y1="523"
     y2="528"
     id="line96" />
  <line
     fill="#000000"
     stroke="#000000"
     stroke-width="1"
     x1="89"
     x2="89"
     y1="533"
     y2="538"
     id="line98" />
  <line
     fill="#000000"
     stroke="#000000"
     stroke-width="1"
     x1="89"
     x2="89"
     y1="543"
     y2="548"
     id="line100" />
  <line
     fill="#000000"
     stroke="#000000"
     stroke-width="1"
     x1="89"
     x2="89"
     y1="553"
     y2="558"
     id="line102" />
  <rect
     fill="#ffffff"
     height="495"
     stroke="#ffffff"
     stroke-width="1"
     width="20"
     x="79"
     y="63"
     id="rect104" />
  <rect
     fill="none"
     height="495"
     stroke="#000000"
     stroke-width="1"
     width="20"
     x="79"
     y="63"
     id="rect106" />
  <rect
     fill="#ffffff"
     height="50"
     stroke="#ffffff"
     stroke-width="1"
     width="150"
     x="14"
     y="14"
     id="rect108" />
  <rect
     fill="none"
     height="50"
     stroke="#000000"
     stroke-width="1"
     width="150"
     x="14"
     y="14"
     id="rect110" />
  <text
     font-size="12"
     x="58"
     y="42.357422"
     id="text112"
     style="font-size:12px;font-family:Dialog">:JUnitCore</text>
  <line
     fill="#000000"
     stroke="#000000"
     stroke-width="1"
     x1="276"
     x2="276"
     y1="63"
     y2="68"
     id="line114" />
  <line
     fill="#000000"
     stroke="#000000"
     stroke-width="1"
     x1="276"
     x2="276"
     y1="73"
     y2="78"
     id="line116" />
  <line
     fill="#000000"
     stroke="#000000"
     stroke-width="1"
     x1="276"
     x2="276"
     y1="83"
     y2="88"
     id="line118" />
  <line
     fill="#000000"
     stroke="#000000"
     stroke-width="1"
     x1="276"
     x2="276"
     y1="93"
     y2="98"
     id="line120" />
  <line
     fill="#000000"
     stroke="#000000"
     stroke-width="1"
     x1="276"
     x2="276"
     y1="103"
     y2="108"
     id="line122" />
  <line
     fill="#000000"
     stroke="#000000"
     stroke-width="1"
     x1="276"
     x2="276"
     y1="113"
     y2="118"
     id="line124" />
  <line
     fill="#000000"
     stroke="#000000"
     stroke-width="1"
     x1="276"
     x2="276"
     y1="123"
     y2="128"
     id="line126" />
  <line
     fill="#000000"
     stroke="#000000"
     stroke-width="1"
     x1="276"
     x2="276"
     y1="133"
     y2="138"
     id="line128" />
  <line
     fill="#000000"
     stroke="#000000"
     stroke-width="1"
     x1="276"
     x2="276"
     y1="143"
     y2="148"
     id="line130" />
  <line
     fill="#000000"
     stroke="#000000"
     stroke-width="1"
     x1="276"
     x2="276"
     y1="153"
     y2="158"
     id="line132" />
  <line
     fill="#000000"
     stroke="#000000"
     stroke-width="1"
     x1="276"
     x2="276"
     y1="163"
     y2="168"
     id="line134" />
  <line
     fill="#000000"
     stroke="#000000"
     stroke-width="1"
     x1="276"
     x2="276"
     y1="173"
     y2="178"
     id="line136" />
  <line
     fill="#000000"
     stroke="#000000"
     stroke-width="1"
     x1="276"
     x2="276"
     y1="183"
     y2="188"
     id="line138" />
  <line
     fill="#000000"
     stroke="#000000"
     stroke-width="1"
     x1="276"
     x2="276"
     y1="193"
     y2="198"
     id="line140" />
  <line
     fill="#000000"
     stroke="#000000"
     stroke-width="1"
     x1="276"
     x2="276"
     y1="203"
     y2="208"
     id="line142" />
  <line
     fill="#000000"
     stroke="#000000"
     stroke-width="1"
     x1="276"
     x2="276"
     y1="213"
     y2="218"
     id="line144" />
  <line
     fill="#000000"
     stroke="#000000"
     stroke-width="1"
     x1="276"
     x2="276"
     y1="223"
     y2="228"
     id="line146" />
  <line
     fill="#000000"
     stroke="#000000"
     stroke-width="1"
     x1="276"
     x2="276"
     y1="233"
     y2="238"
     id="line148" />
  <line
     fill="#000000"
     stroke="#000000"
     stroke-width="1"
     x1="276"
     x2="276"
     y1="243"
     y2="248"
     id="line150" />
  <line
     fill="#000000"
     stroke="#000000"
     stroke-width="1"
     x1="276"
     x2="276"
     y1="253"
     y2="258"
     id="line152" />
  <line
     fill="#000000"
     stroke="#000000"
     stroke-width="1"
     x1="276"
     x2="276"
     y1="263"
     y2="268"
     id="line154" />
  <line
     fill="#000000"
     stroke="#000000"
     stroke-width="1"
     x1="276"
     x2="276"
     y1="273"
     y2="278"
     id="line156" />
  <line
     fill="#000000"
     stroke="#000000"
     stroke-width="1"
     x1="276"
     x2="276"
     y1="283"
     y2="288"
     id="line158" />
  <line
     fill="#000000"
     stroke="#000000"
     stroke-width="1"
     x1="276"
     x2="276"
     y1="293"
     y2="298"
     id="line160" />
  <line
     fill="#000000"
     stroke="#000000"
     stroke-width="1"
     x1="276"
     x2="276"
     y1="303"
     y2="308"
     id="line162" />
  <line
     fill="#000000"
     stroke="#000000"
     stroke-width="1"
     x1="276"
     x2="276"
     y1="313"
     y2="318"
     id="line164" />
  <line
     fill="#000000"
     stroke="#000000"
     stroke-width="1"
     x1="276"
     x2="276"
     y1="323"
     y2="328"
     id="line166" />
  <line
     fill="#000000"
     stroke="#000000"
     stroke-width="1"
     x1="276"
     x2="276"
     y1="333"
     y2="338"
     id="line168" />
  <line
     fill="#000000"
     stroke="#000000"
     stroke-width="1"
     x1="276"
     x2="276"
     y1="343"
     y2="348"
     id="line170" />
  <line
     fill="#000000"
     stroke="#000000"
     stroke-width="1"
     x1="276"
     x2="276"
     y1="353"
     y2="358"
     id="line172" />
  <line
     fill="#000000"
     stroke="#000000"
     stroke-width="1"
     x1="276"
     x2="276"
     y1="363"
     y2="368"
     id="line174" />
  <line
     fill="#000000"
     stroke="#000000"
     stroke-width="1"
     x1="276"
     x2="276"
     y1="373"
     y2="378"
     id="line176" />
  <line
     fill="#000000"
     stroke="#000000"
     stroke-width="1"
     x1="276"
     x2="276"
     y1="383"
     y2="388"
     id="line178" />
  <line
     fill="#000000"
     stroke="#000000"
     stroke-width="1"
     x1="276"
     x2="276"
     y1="393"
     y2="398"
     id="line180" />
  <line
     fill="#000000"
     stroke="#000000"
     stroke-width="1"
     x1="276"
     x2="276"
     y1="403"
     y2="408"
     id="line182" />
  <line
     fill="#000000"
     stroke="#000000"
     stroke-width="1"
     x1="276"
     x2="276"
     y1="413"
     y2="418"
     id="line184" />
  <line
     fill="#000000"
     stroke="#000000"
     stroke-width="1"
     x1="276"
     x2="276"
     y1="423"
     y2="428"
     id="line186" />
  <line
     fill="#000000"
     stroke="#000000"
     stroke-width="1"
     x1="276"
     x2="276"
     y1="433"
     y2="438"
     id="line188" />
  <line
     fill="#000000"
     stroke="#000000"
     stroke-width="1"
     x1="276"
     x2="276"
     y1="443"
     y2="448"
     id="line190" />
  <line
     fill="#000000"
     stroke="#000000"
     stroke-width="1"
     x1="276"
     x2="276"
     y1="453"
     y2="458"
     id="line192" />
  <line
     fill="#000000"
     stroke="#000000"
     stroke-width="1"
     x1="276"
     x2="276"
     y1="463"
     y2="468"
     id="line194" />
  <line
     fill="#000000"
     stroke="#000000"
     stroke-width="1"
     x1="276"
     x2="276"
     y1="473"
     y2="478"
     id="line196" />
  <line
     fill="#000000"
     stroke="#000000"
     stroke-width="1"
     x1="276"
     x2="276"
     y1="483"
     y2="488"
     id="line198" />
  <line
     fill="#000000"
     stroke="#000000"
     stroke-width="1"
     x1="276"
     x2="276"
     y1="493"
     y2="498"
     id="line200" />
  <line
     fill="#000000"
     stroke="#000000"
     stroke-width="1"
     x1="276"
     x2="276"
     y1="503"
     y2="508"
     id="line202" />
  <line
     fill="#000000"
     stroke="#000000"
     stroke-width="1"
     x1="276"
     x2="276"
     y1="513"
     y2="518"
     id="line204" />
  <line
     fill="#000000"
     stroke="#000000"
     stroke-width="1"
     x1="276"
     x2="276"
     y1="523"
     y2="528"
     id="line206" />
  <line
     fill="#000000"
     stroke="#000000"
     stroke-width="1"
     x1="276"
     x2="276"
     y1="533"
     y2="538"
     id="line208" />
  <line
     fill="#000000"
     stroke="#000000"
     stroke-width="1"
     x1="276"
     x2="276"
     y1="543"
     y2="548"
     id="line210" />
  <line
     fill="#000000"
     stroke="#000000"
     stroke-width="1"
     x1="276"
     x2="276"
     y1="553"
     y2="554"
     id="line212" />
  <rect
     fill="#ffffff"
     height="491"
     stroke="#ffffff"
     stroke-width="1"
     width="20"
     x="266"
     y="63"
     id="rect214" />
  <rect
     fill="none"
     height="491"
     stroke="#000000"
     stroke-width="1"
     width="20"
     x="266"
     y="63"
     id="rect216" />
  <rect
     fill="#ffffff"
     height="50"
     stroke="#ffffff"
     stroke-width="1"
     width="150"
     x="201"
     y="14"
     id="rect218" />
  <rect
     fill="none"
     height="50"
     stroke="#000000"
     stroke-width="1"
     width="150"
     x="201"
     y="14"
     id="rect220" />
  <text
     font-size="12"
     x="214"
     y="43.473633"
     id="text222"
     style="font-size:12px;font-family:Dialog">:GamifiTESTdaemon</text>
  <line
     x1="724"
     x2="724"
     y1="36.5"
     y2="41.5"
     id="line224"
     style="fill:#000000;stroke:#000000;stroke-width:1" />
  <line
     x1="724"
     x2="724"
     y1="36.5"
     y2="41.5"
     id="line226"
     style="fill:#000000;stroke:#000000;stroke-width:1" />
  <line
     x1="724"
     x2="724"
     y1="36.5"
     y2="41.5"
     id="line228"
     style="fill:#000000;stroke:#000000;stroke-width:1" />
  <line
     fill="#000000"
     stroke="#000000"
     stroke-width="1"
     x1="724"
     x2="724"
     y1="93"
     y2="98"
     id="line230" />
  <line
     fill="#000000"
     stroke="#000000"
     stroke-width="1"
     x1="724"
     x2="724"
     y1="103"
     y2="108"
     id="line232" />
  <line
     fill="#000000"
     stroke="#000000"
     stroke-width="1"
     x1="724"
     x2="724"
     y1="113"
     y2="118"
     id="line234" />
  <line
     fill="#000000"
     stroke="#000000"
     stroke-width="1"
     x1="724"
     x2="724"
     y1="123"
     y2="128"
     id="line236" />
  <line
     fill="#000000"
     stroke="#000000"
     stroke-width="1"
     x1="724"
     x2="724"
     y1="133"
     y2="138"
     id="line238" />
  <line
     fill="#000000"
     stroke="#000000"
     stroke-width="1"
     x1="724"
     x2="724"
     y1="143"
     y2="148"
     id="line240" />
  <line
     fill="#000000"
     stroke="#000000"
     stroke-width="1"
     x1="724"
     x2="724"
     y1="153"
     y2="158"
     id="line242" />
  <line
     fill="#000000"
     stroke="#000000"
     stroke-width="1"
     x1="724"
     x2="724"
     y1="163"
     y2="168"
     id="line244" />
  <line
     fill="#000000"
     stroke="#000000"
     stroke-width="1"
     x1="724"
     x2="724"
     y1="173"
     y2="178"
     id="line246" />
  <line
     fill="#000000"
     stroke="#000000"
     stroke-width="1"
     x1="724"
     x2="724"
     y1="183"
     y2="188"
     id="line248" />
  <line
     fill="#000000"
     stroke="#000000"
     stroke-width="1"
     x1="724"
     x2="724"
     y1="193"
     y2="198"
     id="line250" />
  <line
     fill="#000000"
     stroke="#000000"
     stroke-width="1"
     x1="724"
     x2="724"
     y1="203"
     y2="208"
     id="line252" />
  <line
     fill="#000000"
     stroke="#000000"
     stroke-width="1"
     x1="724"
     x2="724"
     y1="213"
     y2="218"
     id="line254" />
  <line
     fill="#000000"
     stroke="#000000"
     stroke-width="1"
     x1="724"
     x2="724"
     y1="223"
     y2="228"
     id="line256" />
  <line
     fill="#000000"
     stroke="#000000"
     stroke-width="1"
     x1="724"
     x2="724"
     y1="233"
     y2="238"
     id="line258" />
  <line
     fill="#000000"
     stroke="#000000"
     stroke-width="1"
     x1="724"
     x2="724"
     y1="243"
     y2="248"
     id="line260" />
  <line
     fill="#000000"
     stroke="#000000"
     stroke-width="1"
     x1="724"
     x2="724"
     y1="253"
     y2="258"
     id="line262" />
  <line
     fill="#000000"
     stroke="#000000"
     stroke-width="1"
     x1="724"
     x2="724"
     y1="263"
     y2="268"
     id="line264" />
  <line
     fill="#000000"
     stroke="#000000"
     stroke-width="1"
     x1="724"
     x2="724"
     y1="273"
     y2="278"
     id="line266" />
  <line
     fill="#000000"
     stroke="#000000"
     stroke-width="1"
     x1="724"
     x2="724"
     y1="283"
     y2="288"
     id="line268" />
  <line
     fill="#000000"
     stroke="#000000"
     stroke-width="1"
     x1="724"
     x2="724"
     y1="293"
     y2="298"
     id="line270" />
  <line
     fill="#000000"
     stroke="#000000"
     stroke-width="1"
     x1="724"
     x2="724"
     y1="303"
     y2="308"
     id="line272" />
  <line
     fill="#000000"
     stroke="#000000"
     stroke-width="1"
     x1="724"
     x2="724"
     y1="313"
     y2="318"
     id="line274" />
  <line
     fill="#000000"
     stroke="#000000"
     stroke-width="1"
     x1="724"
     x2="724"
     y1="323"
     y2="328"
     id="line276" />
  <line
     fill="#000000"
     stroke="#000000"
     stroke-width="1"
     x1="724"
     x2="724"
     y1="333"
     y2="338"
     id="line278" />
  <line
     fill="#000000"
     stroke="#000000"
     stroke-width="1"
     x1="724"
     x2="724"
     y1="343"
     y2="348"
     id="line280" />
  <line
     fill="#000000"
     stroke="#000000"
     stroke-width="1"
     x1="724"
     x2="724"
     y1="353"
     y2="358"
     id="line282" />
  <line
     fill="#000000"
     stroke="#000000"
     stroke-width="1"
     x1="724"
     x2="724"
     y1="363"
     y2="368"
     id="line284" />
  <line
     fill="#000000"
     stroke="#000000"
     stroke-width="1"
     x1="724"
     x2="724"
     y1="373"
     y2="378"
     id="line286" />
  <line
     fill="#000000"
     stroke="#000000"
     stroke-width="1"
     x1="724"
     x2="724"
     y1="383"
     y2="388"
     id="line288" />
  <line
     fill="#000000"
     stroke="#000000"
     stroke-width="1"
     x1="724"
     x2="724"
     y1="393"
     y2="398"
     id="line290" />
  <line
     fill="#000000"
     stroke="#000000"
     stroke-width="1"
     x1="724"
     x2="724"
     y1="403"
     y2="408"
     id="line292" />
  <line
     fill="#000000"
     stroke="#000000"
     stroke-width="1"
     x1="724"
     x2="724"
     y1="413"
     y2="418"
     id="line294" />
  <line
     fill="#000000"
     stroke="#000000"
     stroke-width="1"
     x1="724"
     x2="724"
     y1="423"
     y2="428"
     id="line296" />
  <line
     fill="#000000"
     stroke="#000000"
     stroke-width="1"
     x1="724"
     x2="724"
     y1="433"
     y2="438"
     id="line298" />
  <line
     fill="#000000"
     stroke="#000000"
     stroke-width="1"
     x1="724"
     x2="724"
     y1="443"
     y2="448"
     id="line300" />
  <line
     fill="#000000"
     stroke="#000000"
     stroke-width="1"
     x1="724"
     x2="724"
     y1="453"
     y2="458"
     id="line302" />
  <line
     fill="#000000"
     stroke="#000000"
     stroke-width="1"
     x1="724"
     x2="724"
     y1="463"
     y2="468"
     id="line304" />
  <line
     fill="#000000"
     stroke="#000000"
     stroke-width="1"
     x1="724"
     x2="724"
     y1="473"
     y2="478"
     id="line306" />
  <line
     fill="#000000"
     stroke="#000000"
     stroke-width="1"
     x1="724"
     x2="724"
     y1="483"
     y2="488"
     id="line308" />
  <line
     fill="#000000"
     stroke="#000000"
     stroke-width="1"
     x1="724"
     x2="724"
     y1="493"
     y2="498"
     id="line310" />
  <line
     fill="#000000"
     stroke="#000000"
     stroke-width="1"
     x1="724"
     x2="724"
     y1="503"
     y2="508"
     id="line312" />
  <line
     fill="#000000"
     stroke="#000000"
     stroke-width="1"
     x1="724"
     x2="724"
     y1="513"
     y2="518"
     id="line314" />
  <line
     fill="#000000"
     stroke="#000000"
     stroke-width="1"
     x1="724"
     x2="724"
     y1="523"
     y2="528"
     id="line316" />
  <line
     fill="#000000"
     stroke="#000000"
     stroke-width="1"
     x1="724"
     x2="724"
     y1="533"
     y2="538"
     id="line318" />
  <line
     fill="#000000"
     stroke="#000000"
     stroke-width="1"
     x1="724"
     x2="724"
     y1="543"
     y2="548"
     id="line320" />
  <line
     fill="#000000"
     stroke="#000000"
     stroke-width="1"
     x1="724"
     x2="724"
     y1="553"
     y2="554"
     id="line322" />
  <rect
     fill="#ffffff"
     height="246"
     stroke="#ffffff"
     stroke-width="1"
     width="20"
     x="714"
     y="136"
     id="rect324" />
  <rect
     fill="none"
     height="246"
     stroke="#000000"
     stroke-width="1"
     width="20"
     x="714"
     y="136"
     id="rect326" />
  <rect
     fill="#ffffff"
     height="30"
     stroke="#ffffff"
     stroke-width="1"
     width="20"
     x="724"
     y="292"
     id="rect328" />
  <rect
     fill="none"
     height="30"
     stroke="#000000"
     stroke-width="1"
     width="20"
     x="724"
     y="292"
     id="rect330" />
  <rect
     fill="#ffffff"
     height="50"
     stroke="#ffffff"
     stroke-width="1"
     width="150"
     x="649"
     y="14"
     id="rect332" />
  <rect
     fill="none"
     height="50"
     stroke="#000000"
     stroke-width="1"
     width="150"
     x="649"
     y="14"
     id="rect334" />
  <text
     font-size="12"
     x="672"
     y="43.473633"
     id="text336"
     style="font-size:12px;font-family:Dialog">:GamifiTESTbrain</text>
  <line
     x1="932"
     x2="932"
     y1="36.5"
     y2="41.5"
     id="line338"
     style="fill:#000000;stroke:#000000;stroke-width:1" />
  <line
     x1="932"
     x2="932"
     y1="36.5"
     y2="41.5"
     id="line340"
     style="fill:#000000;stroke:#000000;stroke-width:1" />
  <line
     x1="932"
     x2="932"
     y1="36.5"
     y2="41.5"
     id="line342"
     style="fill:#000000;stroke:#000000;stroke-width:1" />
  <line
     fill="#000000"
     stroke="#000000"
     stroke-width="1"
     x1="932"
     x2="932"
     y1="93"
     y2="98"
     id="line344" />
  <line
     fill="#000000"
     stroke="#000000"
     stroke-width="1"
     x1="932"
     x2="932"
     y1="103"
     y2="108"
     id="line346" />
  <line
     fill="#000000"
     stroke="#000000"
     stroke-width="1"
     x1="932"
     x2="932"
     y1="113"
     y2="118"
     id="line348" />
  <line
     fill="#000000"
     stroke="#000000"
     stroke-width="1"
     x1="932"
     x2="932"
     y1="123"
     y2="128"
     id="line350" />
  <line
     fill="#000000"
     stroke="#000000"
     stroke-width="1"
     x1="932"
     x2="932"
     y1="133"
     y2="138"
     id="line352" />
  <line
     fill="#000000"
     stroke="#000000"
     stroke-width="1"
     x1="932"
     x2="932"
     y1="143"
     y2="148"
     id="line354" />
  <line
     fill="#000000"
     stroke="#000000"
     stroke-width="1"
     x1="932"
     x2="932"
     y1="153"
     y2="158"
     id="line356" />
  <line
     fill="#000000"
     stroke="#000000"
     stroke-width="1"
     x1="932"
     x2="932"
     y1="163"
     y2="168"
     id="line358" />
  <line
     fill="#000000"
     stroke="#000000"
     stroke-width="1"
     x1="932"
     x2="932"
     y1="173"
     y2="178"
     id="line360" />
  <line
     fill="#000000"
     stroke="#000000"
     stroke-width="1"
     x1="932"
     x2="932"
     y1="183"
     y2="188"
     id="line362" />
  <line
     fill="#000000"
     stroke="#000000"
     stroke-width="1"
     x1="932"
     x2="932"
     y1="193"
     y2="198"
     id="line364" />
  <line
     fill="#000000"
     stroke="#000000"
     stroke-width="1"
     x1="932"
     x2="932"
     y1="203"
     y2="208"
     id="line366" />
  <line
     fill="#000000"
     stroke="#000000"
     stroke-width="1"
     x1="932"
     x2="932"
     y1="213"
     y2="218"
     id="line368" />
  <line
     fill="#000000"
     stroke="#000000"
     stroke-width="1"
     x1="932"
     x2="932"
     y1="223"
     y2="228"
     id="line370" />
  <line
     fill="#000000"
     stroke="#000000"
     stroke-width="1"
     x1="932"
     x2="932"
     y1="233"
     y2="238"
     id="line372" />
  <line
     fill="#000000"
     stroke="#000000"
     stroke-width="1"
     x1="932"
     x2="932"
     y1="243"
     y2="248"
     id="line374" />
  <line
     fill="#000000"
     stroke="#000000"
     stroke-width="1"
     x1="932"
     x2="932"
     y1="253"
     y2="258"
     id="line376" />
  <line
     fill="#000000"
     stroke="#000000"
     stroke-width="1"
     x1="932"
     x2="932"
     y1="263"
     y2="268"
     id="line378" />
  <line
     fill="#000000"
     stroke="#000000"
     stroke-width="1"
     x1="932"
     x2="932"
     y1="273"
     y2="278"
     id="line380" />
  <line
     fill="#000000"
     stroke="#000000"
     stroke-width="1"
     x1="932"
     x2="932"
     y1="283"
     y2="288"
     id="line382" />
  <line
     fill="#000000"
     stroke="#000000"
     stroke-width="1"
     x1="932"
     x2="932"
     y1="293"
     y2="298"
     id="line384" />
  <line
     fill="#000000"
     stroke="#000000"
     stroke-width="1"
     x1="932"
     x2="932"
     y1="303"
     y2="308"
     id="line386" />
  <line
     fill="#000000"
     stroke="#000000"
     stroke-width="1"
     x1="932"
     x2="932"
     y1="313"
     y2="318"
     id="line388" />
  <line
     fill="#000000"
     stroke="#000000"
     stroke-width="1"
     x1="932"
     x2="932"
     y1="323"
     y2="328"
     id="line390" />
  <line
     fill="#000000"
     stroke="#000000"
     stroke-width="1"
     x1="932"
     x2="932"
     y1="333"
     y2="338"
     id="line392" />
  <line
     fill="#000000"
     stroke="#000000"
     stroke-width="1"
     x1="932"
     x2="932"
     y1="343"
     y2="348"
     id="line394" />
  <line
     fill="#000000"
     stroke="#000000"
     stroke-width="1"
     x1="932"
     x2="932"
     y1="353"
     y2="358"
     id="line396" />
  <line
     fill="#000000"
     stroke="#000000"
     stroke-width="1"
     x1="932"
     x2="932"
     y1="363"
     y2="368"
     id="line398" />
  <line
     fill="#000000"
     stroke="#000000"
     stroke-width="1"
     x1="932"
     x2="932"
     y1="373"
     y2="378"
     id="line400" />
  <line
     fill="#000000"
     stroke="#000000"
     stroke-width="1"
     x1="932"
     x2="932"
     y1="383"
     y2="388"
     id="line402" />
  <line
     fill="#000000"
     stroke="#000000"
     stroke-width="1"
     x1="932"
     x2="932"
     y1="393"
     y2="398"
     id="line404" />
  <line
     fill="#000000"
     stroke="#000000"
     stroke-width="1"
     x1="932"
     x2="932"
     y1="403"
     y2="408"
     id="line406" />
  <line
     fill="#000000"
     stroke="#000000"
     stroke-width="1"
     x1="932"
     x2="932"
     y1="413"
     y2="418"
     id="line408" />
  <line
     fill="#000000"
     stroke="#000000"
     stroke-width="1"
     x1="932"
     x2="932"
     y1="423"
     y2="428"
     id="line410" />
  <line
     fill="#000000"
     stroke="#000000"
     stroke-width="1"
     x1="932"
     x2="932"
     y1="433"
     y2="438"
     id="line412" />
  <line
     fill="#000000"
     stroke="#000000"
     stroke-width="1"
     x1="932"
     x2="932"
     y1="443"
     y2="448"
     id="line414" />
  <line
     fill="#000000"
     stroke="#000000"
     stroke-width="1"
     x1="932"
     x2="932"
     y1="453"
     y2="458"
     id="line416" />
  <line
     fill="#000000"
     stroke="#000000"
     stroke-width="1"
     x1="932"
     x2="932"
     y1="463"
     y2="468"
     id="line418" />
  <line
     fill="#000000"
     stroke="#000000"
     stroke-width="1"
     x1="932"
     x2="932"
     y1="473"
     y2="478"
     id="line420" />
  <line
     fill="#000000"
     stroke="#000000"
     stroke-width="1"
     x1="932"
     x2="932"
     y1="483"
     y2="488"
     id="line422" />
  <line
     fill="#000000"
     stroke="#000000"
     stroke-width="1"
     x1="932"
     x2="932"
     y1="493"
     y2="498"
     id="line424" />
  <line
     fill="#000000"
     stroke="#000000"
     stroke-width="1"
     x1="932"
     x2="932"
     y1="503"
     y2="508"
     id="line426" />
  <line
     fill="#000000"
     stroke="#000000"
     stroke-width="1"
     x1="932"
     x2="932"
     y1="513"
     y2="518"
     id="line428" />
  <line
     fill="#000000"
     stroke="#000000"
     stroke-width="1"
     x1="932"
     x2="932"
     y1="523"
     y2="528"
     id="line430" />
  <line
     fill="#000000"
     stroke="#000000"
     stroke-width="1"
     x1="932"
     x2="932"
     y1="533"
     y2="538"
     id="line432" />
  <line
     fill="#000000"
     stroke="#000000"
     stroke-width="1"
     x1="932"
     x2="932"
     y1="543"
     y2="548"
     id="line434" />
  <line
     fill="#000000"
     stroke="#000000"
     stroke-width="1"
     x1="932"
     x2="932"
     y1="553"
     y2="554"
     id="line436" />
  <rect
     fill="#ffffff"
     height="90"
     stroke="#ffffff"
     stroke-width="1"
     width="20"
     x="922"
     y="156"
     id="rect438" />
  <rect
     fill="none"
     height="90"
     stroke="#000000"
     stroke-width="1"
     width="20"
     x="922"
     y="156"
     id="rect440" />
  <rect
     fill="#ffffff"
     height="96"
     stroke="#ffffff"
     stroke-width="1"
     width="20"
     x="922"
     y="422"
     id="rect442" />
  <rect
     fill="none"
     height="96"
     stroke="#000000"
     stroke-width="1"
     width="20"
     x="922"
     y="422"
     id="rect444" />
  <rect
     fill="#ffffff"
     height="50"
     stroke="#ffffff"
     stroke-width="1"
     width="150"
     x="857"
     y="14"
     id="rect446" />
  <rect
     fill="none"
     height="50"
     stroke="#000000"
     stroke-width="1"
     width="150"
     x="857"
     y="14"
     id="rect448" />
  <text
     font-size="12"
     x="890"
     y="43.473633"
     id="text450"
     style="font-size:12px;font-family:Dialog">:GamifiTESTio</text>
  <line
     x1="1268"
     x2="1268"
     y1="36.5"
     y2="41.5"
     id="line452"
     style="fill:#000000;stroke:#000000;stroke-width:1" />
  <line
     x1="1268"
     x2="1268"
     y1="36.5"
     y2="41.5"
     id="line454"
     style="fill:#000000;stroke:#000000;stroke-width:1" />
  <line
     x1="1268"
     x2="1268"
     y1="36.5"
     y2="41.5"
     id="line456"
     style="fill:#000000;stroke:#000000;stroke-width:1" />
  <line
     x1="1268"
     x2="1268"
     y1="36.5"
     y2="41.5"
     id="line458"
     style="fill:#000000;stroke:#000000;stroke-width:1" />
  <line
     x1="1268"
     x2="1268"
     y1="36.5"
     y2="41.5"
     id="line460"
     style="fill:#000000;stroke:#000000;stroke-width:1" />
  <line
     fill="#000000"
     stroke="#000000"
     stroke-width="1"
     x1="1268"
     x2="1268"
     y1="113"
     y2="118"
     id="line462" />
  <line
     fill="#000000"
     stroke="#000000"
     stroke-width="1"
     x1="1268"
     x2="1268"
     y1="123"
     y2="128"
     id="line464" />
  <line
     fill="#000000"
     stroke="#000000"
     stroke-width="1"
     x1="1268"
     x2="1268"
     y1="133"
     y2="138"
     id="line466" />
  <line
     fill="#000000"
     stroke="#000000"
     stroke-width="1"
     x1="1268"
     x2="1268"
     y1="143"
     y2="148"
     id="line468" />
  <line
     fill="#000000"
     stroke="#000000"
     stroke-width="1"
     x1="1268"
     x2="1268"
     y1="153"
     y2="158"
     id="line470" />
  <line
     fill="#000000"
     stroke="#000000"
     stroke-width="1"
     x1="1268"
     x2="1268"
     y1="163"
     y2="168"
     id="line472" />
  <line
     fill="#000000"
     stroke="#000000"
     stroke-width="1"
     x1="1268"
     x2="1268"
     y1="173"
     y2="178"
     id="line474" />
  <line
     fill="#000000"
     stroke="#000000"
     stroke-width="1"
     x1="1268"
     x2="1268"
     y1="183"
     y2="188"
     id="line476" />
  <line
     fill="#000000"
     stroke="#000000"
     stroke-width="1"
     x1="1268"
     x2="1268"
     y1="193"
     y2="198"
     id="line478" />
  <line
     fill="#000000"
     stroke="#000000"
     stroke-width="1"
     x1="1268"
     x2="1268"
     y1="203"
     y2="208"
     id="line480" />
  <line
     fill="#000000"
     stroke="#000000"
     stroke-width="1"
     x1="1268"
     x2="1268"
     y1="213"
     y2="218"
     id="line482" />
  <line
     fill="#000000"
     stroke="#000000"
     stroke-width="1"
     x1="1268"
     x2="1268"
     y1="223"
     y2="228"
     id="line484" />
  <line
     fill="#000000"
     stroke="#000000"
     stroke-width="1"
     x1="1268"
     x2="1268"
     y1="233"
     y2="238"
     id="line486" />
  <line
     fill="#000000"
     stroke="#000000"
     stroke-width="1"
     x1="1268"
     x2="1268"
     y1="243"
     y2="248"
     id="line488" />
  <line
     fill="#000000"
     stroke="#000000"
     stroke-width="1"
     x1="1268"
     x2="1268"
     y1="253"
     y2="258"
     id="line490" />
  <line
     fill="#000000"
     stroke="#000000"
     stroke-width="1"
     x1="1268"
     x2="1268"
     y1="263"
     y2="268"
     id="line492" />
  <line
     fill="#000000"
     stroke="#000000"
     stroke-width="1"
     x1="1268"
     x2="1268"
     y1="273"
     y2="278"
     id="line494" />
  <line
     fill="#000000"
     stroke="#000000"
     stroke-width="1"
     x1="1268"
     x2="1268"
     y1="283"
     y2="288"
     id="line496" />
  <line
     fill="#000000"
     stroke="#000000"
     stroke-width="1"
     x1="1268"
     x2="1268"
     y1="293"
     y2="298"
     id="line498" />
  <line
     fill="#000000"
     stroke="#000000"
     stroke-width="1"
     x1="1268"
     x2="1268"
     y1="303"
     y2="308"
     id="line500" />
  <line
     fill="#000000"
     stroke="#000000"
     stroke-width="1"
     x1="1268"
     x2="1268"
     y1="313"
     y2="318"
     id="line502" />
  <line
     fill="#000000"
     stroke="#000000"
     stroke-width="1"
     x1="1268"
     x2="1268"
     y1="323"
     y2="328"
     id="line504" />
  <line
     fill="#000000"
     stroke="#000000"
     stroke-width="1"
     x1="1268"
     x2="1268"
     y1="333"
     y2="338"
     id="line506" />
  <line
     fill="#000000"
     stroke="#000000"
     stroke-width="1"
     x1="1268"
     x2="1268"
     y1="343"
     y2="348"
     id="line508" />
  <line
     fill="#000000"
     stroke="#000000"
     stroke-width="1"
     x1="1268"
     x2="1268"
     y1="353"
     y2="358"
     id="line510" />
  <line
     fill="#000000"
     stroke="#000000"
     stroke-width="1"
     x1="1268"
     x2="1268"
     y1="363"
     y2="368"
     id="line512" />
  <line
     fill="#000000"
     stroke="#000000"
     stroke-width="1"
     x1="1268"
     x2="1268"
     y1="373"
     y2="378"
     id="line514" />
  <line
     fill="#000000"
     stroke="#000000"
     stroke-width="1"
     x1="1268"
     x2="1268"
     y1="383"
     y2="388"
     id="line516" />
  <line
     fill="#000000"
     stroke="#000000"
     stroke-width="1"
     x1="1268"
     x2="1268"
     y1="393"
     y2="398"
     id="line518" />
  <line
     fill="#000000"
     stroke="#000000"
     stroke-width="1"
     x1="1268"
     x2="1268"
     y1="403"
     y2="408"
     id="line520" />
  <line
     fill="#000000"
     stroke="#000000"
     stroke-width="1"
     x1="1268"
     x2="1268"
     y1="413"
     y2="418"
     id="line522" />
  <line
     fill="#000000"
     stroke="#000000"
     stroke-width="1"
     x1="1268"
     x2="1268"
     y1="423"
     y2="428"
     id="line524" />
  <line
     fill="#000000"
     stroke="#000000"
     stroke-width="1"
     x1="1268"
     x2="1268"
     y1="433"
     y2="438"
     id="line526" />
  <line
     fill="#000000"
     stroke="#000000"
     stroke-width="1"
     x1="1268"
     x2="1268"
     y1="443"
     y2="448"
     id="line528" />
  <line
     fill="#000000"
     stroke="#000000"
     stroke-width="1"
     x1="1268"
     x2="1268"
     y1="453"
     y2="458"
     id="line530" />
  <line
     fill="#000000"
     stroke="#000000"
     stroke-width="1"
     x1="1268"
     x2="1268"
     y1="463"
     y2="468"
     id="line532" />
  <line
     fill="#000000"
     stroke="#000000"
     stroke-width="1"
     x1="1268"
     x2="1268"
     y1="473"
     y2="478"
     id="line534" />
  <line
     fill="#000000"
     stroke="#000000"
     stroke-width="1"
     x1="1268"
     x2="1268"
     y1="483"
     y2="488"
     id="line536" />
  <line
     fill="#000000"
     stroke="#000000"
     stroke-width="1"
     x1="1268"
     x2="1268"
     y1="493"
     y2="498"
     id="line538" />
  <line
     fill="#000000"
     stroke="#000000"
     stroke-width="1"
     x1="1268"
     x2="1268"
     y1="503"
     y2="508"
     id="line540" />
  <line
     fill="#000000"
     stroke="#000000"
     stroke-width="1"
     x1="1268"
     x2="1268"
     y1="513"
     y2="518"
     id="line542" />
  <line
     fill="#000000"
     stroke="#000000"
     stroke-width="1"
     x1="1268"
     x2="1268"
     y1="523"
     y2="528"
     id="line544" />
  <line
     fill="#000000"
     stroke="#000000"
     stroke-width="1"
     x1="1268"
     x2="1268"
     y1="533"
     y2="538"
     id="line546" />
  <line
     fill="#000000"
     stroke="#000000"
     stroke-width="1"
     x1="1268"
     x2="1268"
     y1="543"
     y2="548"
     id="line548" />
  <line
     fill="#000000"
     stroke="#000000"
     stroke-width="1"
     x1="1268"
     x2="1268"
     y1="553"
     y2="558"
     id="line550" />
  <rect
     fill="#ffffff"
     height="50"
     stroke="#ffffff"
     stroke-width="1"
     width="20"
     x="1258"
     y="176"
     id="rect552" />
  <rect
     fill="none"
     height="50"
     stroke="#000000"
     stroke-width="1"
     width="20"
     x="1258"
     y="176"
     id="rect554" />
  <rect
     fill="#ffffff"
     height="50"
     stroke="#ffffff"
     stroke-width="1"
     width="20"
     x="1258"
     y="448"
     id="rect556" />
  <rect
     fill="none"
     height="50"
     stroke="#000000"
     stroke-width="1"
     width="20"
     x="1258"
     y="448"
     id="rect558" />
  <rect
     fill="#ffffff"
     height="50"
     stroke="#ffffff"
     stroke-width="1"
     width="150"
     x="1193"
     y="14"
     id="rect560" />
  <rect
     fill="none"
     height="50"
     stroke="#000000"
     stroke-width="1"
     width="150"
     x="1193"
     y="14"
     id="rect562" />
  <text
     font-size="12"
     x="1229"
     y="43.368164"
     id="text564"
     style="font-size:12px;font-family:Dialog">:REST server</text>
  <polyline
     fill="none"
     points="99,88 266,88"
     stroke="#000000"
     stroke-width="1"
     id="polyline566" />
  <line
     fill="#000000"
     stroke="#000000"
     stroke-width="1"
     x1="254"
     x2="266"
     y1="95"
     y2="88"
     id="line568" />
  <line
     fill="#000000"
     stroke="#000000"
     stroke-width="1"
     x1="254"
     x2="266"
     y1="81"
     y2="88"
     id="line570" />
  <text
     font-family="Dialog"
     font-size="12"
     x="135"
     y="83"
     id="text572">
report(testData)</text>
  <line
     x1="524"
     x2="524"
     y1="36.5"
     y2="41.5"
     id="line574"
     style="fill:#000000;stroke:#000000;stroke-width:1" />
  <line
     x1="524"
     x2="524"
     y1="36.5"
     y2="41.5"
     id="line576"
     style="fill:#000000;stroke:#000000;stroke-width:1" />
  <line
     fill="#000000"
     stroke="#000000"
     stroke-width="1"
     x1="524"
     x2="524"
     y1="83"
     y2="88"
     id="line578" />
  <line
     fill="#000000"
     stroke="#000000"
     stroke-width="1"
     x1="524"
     x2="524"
     y1="93"
     y2="98"
     id="line580" />
  <line
     fill="#000000"
     stroke="#000000"
     stroke-width="1"
     x1="524"
     x2="524"
     y1="103"
     y2="108"
     id="line582" />
  <line
     fill="#000000"
     stroke="#000000"
     stroke-width="1"
     x1="524"
     x2="524"
     y1="113"
     y2="118"
     id="line584" />
  <line
     fill="#000000"
     stroke="#000000"
     stroke-width="1"
     x1="524"
     x2="524"
     y1="123"
     y2="128"
     id="line586" />
  <line
     fill="#000000"
     stroke="#000000"
     stroke-width="1"
     x1="524"
     x2="524"
     y1="133"
     y2="138"
     id="line588" />
  <line
     fill="#000000"
     stroke="#000000"
     stroke-width="1"
     x1="524"
     x2="524"
     y1="143"
     y2="148"
     id="line590" />
  <line
     fill="#000000"
     stroke="#000000"
     stroke-width="1"
     x1="524"
     x2="524"
     y1="153"
     y2="158"
     id="line592" />
  <line
     fill="#000000"
     stroke="#000000"
     stroke-width="1"
     x1="524"
     x2="524"
     y1="163"
     y2="168"
     id="line594" />
  <line
     fill="#000000"
     stroke="#000000"
     stroke-width="1"
     x1="524"
     x2="524"
     y1="173"
     y2="178"
     id="line596" />
  <line
     fill="#000000"
     stroke="#000000"
     stroke-width="1"
     x1="524"
     x2="524"
     y1="183"
     y2="188"
     id="line598" />
  <line
     fill="#000000"
     stroke="#000000"
     stroke-width="1"
     x1="524"
     x2="524"
     y1="193"
     y2="198"
     id="line600" />
  <line
     fill="#000000"
     stroke="#000000"
     stroke-width="1"
     x1="524"
     x2="524"
     y1="203"
     y2="208"
     id="line602" />
  <line
     fill="#000000"
     stroke="#000000"
     stroke-width="1"
     x1="524"
     x2="524"
     y1="213"
     y2="218"
     id="line604" />
  <line
     fill="#000000"
     stroke="#000000"
     stroke-width="1"
     x1="524"
     x2="524"
     y1="223"
     y2="228"
     id="line606" />
  <line
     fill="#000000"
     stroke="#000000"
     stroke-width="1"
     x1="524"
     x2="524"
     y1="233"
     y2="238"
     id="line608" />
  <line
     fill="#000000"
     stroke="#000000"
     stroke-width="1"
     x1="524"
     x2="524"
     y1="243"
     y2="248"
     id="line610" />
  <line
     fill="#000000"
     stroke="#000000"
     stroke-width="1"
     x1="524"
     x2="524"
     y1="253"
     y2="258"
     id="line612" />
  <line
     fill="#000000"
     stroke="#000000"
     stroke-width="1"
     x1="524"
     x2="524"
     y1="263"
     y2="268"
     id="line614" />
  <line
     fill="#000000"
     stroke="#000000"
     stroke-width="1"
     x1="524"
     x2="524"
     y1="273"
     y2="278"
     id="line616" />
  <line
     fill="#000000"
     stroke="#000000"
     stroke-width="1"
     x1="524"
     x2="524"
     y1="283"
     y2="288"
     id="line618" />
  <line
     fill="#000000"
     stroke="#000000"
     stroke-width="1"
     x1="524"
     x2="524"
     y1="293"
     y2="298"
     id="line620" />
  <line
     fill="#000000"
     stroke="#000000"
     stroke-width="1"
     x1="524"
     x2="524"
     y1="303"
     y2="308"
     id="line622" />
  <line
     fill="#000000"
     stroke="#000000"
     stroke-width="1"
     x1="524"
     x2="524"
     y1="313"
     y2="318"
     id="line624" />
  <line
     fill="#000000"
     stroke="#000000"
     stroke-width="1"
     x1="524"
     x2="524"
     y1="323"
     y2="328"
     id="line626" />
  <line
     fill="#000000"
     stroke="#000000"
     stroke-width="1"
     x1="524"
     x2="524"
     y1="333"
     y2="338"
     id="line628" />
  <line
     fill="#000000"
     stroke="#000000"
     stroke-width="1"
     x1="524"
     x2="524"
     y1="343"
     y2="348"
     id="line630" />
  <line
     fill="#000000"
     stroke="#000000"
     stroke-width="1"
     x1="524"
     x2="524"
     y1="353"
     y2="358"
     id="line632" />
  <line
     fill="#000000"
     stroke="#000000"
     stroke-width="1"
     x1="524"
     x2="524"
     y1="363"
     y2="368"
     id="line634" />
  <line
     fill="#000000"
     stroke="#000000"
     stroke-width="1"
     x1="524"
     x2="524"
     y1="373"
     y2="378"
     id="line636" />
  <line
     fill="#000000"
     stroke="#000000"
     stroke-width="1"
     x1="524"
     x2="524"
     y1="383"
     y2="388"
     id="line638" />
  <line
     fill="#000000"
     stroke="#000000"
     stroke-width="1"
     x1="524"
     x2="524"
     y1="393"
     y2="398"
     id="line640" />
  <line
     fill="#000000"
     stroke="#000000"
     stroke-width="1"
     x1="524"
     x2="524"
     y1="403"
     y2="408"
     id="line642" />
  <line
     fill="#000000"
     stroke="#000000"
     stroke-width="1"
     x1="524"
     x2="524"
     y1="413"
     y2="418"
     id="line644" />
  <line
     fill="#000000"
     stroke="#000000"
     stroke-width="1"
     x1="524"
     x2="524"
     y1="423"
     y2="428"
     id="line646" />
  <line
     fill="#000000"
     stroke="#000000"
     stroke-width="1"
     x1="524"
     x2="524"
     y1="433"
     y2="438"
     id="line648" />
  <line
     fill="#000000"
     stroke="#000000"
     stroke-width="1"
     x1="524"
     x2="524"
     y1="443"
     y2="448"
     id="line650" />
  <line
     fill="#000000"
     stroke="#000000"
     stroke-width="1"
     x1="524"
     x2="524"
     y1="453"
     y2="458"
     id="line652" />
  <line
     fill="#000000"
     stroke="#000000"
     stroke-width="1"
     x1="524"
     x2="524"
     y1="463"
     y2="468"
     id="line654" />
  <line
     fill="#000000"
     stroke="#000000"
     stroke-width="1"
     x1="524"
     x2="524"
     y1="473"
     y2="478"
     id="line656" />
  <line
     fill="#000000"
     stroke="#000000"
     stroke-width="1"
     x1="524"
     x2="524"
     y1="483"
     y2="488"
     id="line658" />
  <line
     fill="#000000"
     stroke="#000000"
     stroke-width="1"
     x1="524"
     x2="524"
     y1="493"
     y2="498"
     id="line660" />
  <line
     fill="#000000"
     stroke="#000000"
     stroke-width="1"
     x1="524"
     x2="524"
     y1="503"
     y2="508"
     id="line662" />
  <line
     fill="#000000"
     stroke="#000000"
     stroke-width="1"
     x1="524"
     x2="524"
     y1="513"
     y2="518"
     id="line664" />
  <line
     fill="#000000"
     stroke="#000000"
     stroke-width="1"
     x1="524"
     x2="524"
     y1="523"
     y2="528"
     id="line666" />
  <line
     fill="#000000"
     stroke="#000000"
     stroke-width="1"
     x1="524"
     x2="524"
     y1="533"
     y2="538"
     id="line668" />
  <line
     fill="#000000"
     stroke="#000000"
     stroke-width="1"
     x1="524"
     x2="524"
     y1="543"
     y2="548"
     id="line670" />
  <line
     fill="#000000"
     stroke="#000000"
     stroke-width="1"
     x1="524"
     x2="524"
     y1="553"
     y2="558"
     id="line672" />
  <rect
     fill="#ffffff"
     height="495"
     stroke="#ffffff"
     stroke-width="1"
     width="20"
     x="514"
     y="63"
     id="rect674" />
  <rect
     fill="none"
     height="495"
     stroke="#000000"
     stroke-width="1"
     width="20"
     x="514"
     y="63"
     id="rect676" />
  <rect
     fill="#ffffff"
     height="50"
     stroke="#ffffff"
     stroke-width="1"
     width="150"
     x="449"
     y="14"
     id="rect678" />
  <rect
     fill="none"
     height="50"
     stroke="#000000"
     stroke-width="1"
     width="150"
     x="449"
     y="14"
     id="rect680" />
  <text
     font-size="12"
     x="488"
     y="43.473633"
     id="text682"
     style="font-size:12px;font-family:Dialog">:GamifiTEST</text>
  <polyline
     fill="none"
     points="286,112 514,112"
     stroke="#000000"
     stroke-width="1"
     id="polyline684" />
  <line
     fill="#000000"
     stroke="#000000"
     stroke-width="1"
     x1="502"
     x2="514"
     y1="119"
     y2="112"
     id="line686" />
  <line
     fill="#000000"
     stroke="#000000"
     stroke-width="1"
     x1="502"
     x2="514"
     y1="105"
     y2="112"
     id="line688" />
  <text
     font-family="Dialog"
     font-size="12"
     x="292"
     y="104"
     id="text690">
measure_and_report(testData)</text>
  <polyline
     fill="none"
     points="534,136 714,136"
     stroke="#000000"
     stroke-width="1"
     id="polyline692" />
  <polygon
     fill="#000000"
     points="714,136 702,143 702,129"
     stroke="#000000"
     stroke-width="1"
     id="polygon694" />
  <polygon
     fill="none"
     points="714,136 702,143 702,129"
     stroke="#000000"
     stroke-width="1"
     id="polygon696" />
  <text
     font-family="Dialog"
     font-size="12"
     x="561"
     y="130"
     id="text698">
measure(testData)</text>
  <polyline
     fill="none"
     points="714,382 534,382"
     stroke="#000000"
     stroke-width="1"
     id="polyline700"
     style="stroke-width:1;stroke-miterlimit:4;stroke-dasharray:6,6;stroke-dashoffset:0" />
  <line
     fill="#000000"
     stroke="#000000"
     stroke-width="1"
     x1="546"
     x2="534"
     y1="375"
     y2="382"
     id="line702" />
  <line
     fill="#000000"
     stroke="#000000"
     stroke-width="1"
     x1="546"
     x2="534"
     y1="389"
     y2="382"
     id="line704" />
  <text
     font-family="Dialog"
     font-size="12"
     x="583"
     y="376"
     id="text706">
metrics</text>
  <polyline
     fill="none"
     points="534,422 922,422"
     stroke="#000000"
     stroke-width="1"
     id="polyline708" />
  <polygon
     fill="#000000"
     points="922,422 910,429 910,415"
     stroke="#000000"
     stroke-width="1"
     id="polygon710" />
  <polygon
     fill="none"
     points="922,422 910,429 910,415"
     stroke="#000000"
     stroke-width="1"
     id="polygon712" />
  <text
     font-family="Dialog"
     font-size="12"
     x="682"
     y="417"
     id="text714">
report(metrics)</text>
  <polyline
     fill="none"
     points="922,518 534,518"
     stroke="#000000"
     stroke-width="1"
     id="polyline716"
     style="stroke-width:1;stroke-miterlimit:4;stroke-dasharray:6,6;stroke-dashoffset:0" />
  <line
     fill="#000000"
     stroke="#000000"
     stroke-width="1"
     x1="546"
     x2="534"
     y1="511"
     y2="518"
     id="line718" />
  <line
     fill="#000000"
     stroke="#000000"
     stroke-width="1"
     x1="546"
     x2="534"
     y1="525"
     y2="518"
     id="line720" />
  <polyline
     fill="none"
     points="734,156 922,156"
     stroke="#000000"
     stroke-width="1"
     id="polyline722" />
  <polygon
     fill="#000000"
     points="922,156 910,163 910,149"
     stroke="#000000"
     stroke-width="1"
     id="polygon724" />
  <polygon
     fill="none"
     points="922,156 910,163 910,149"
     stroke="#000000"
     stroke-width="1"
     id="polygon726" />
  <text
     font-family="Dialog"
     font-size="12"
     x="782"
     y="151"
     id="text728">
request(info)</text>
  <polyline
     fill="none"
     points="922,246 734,246"
     stroke="#000000"
     stroke-width="1"
     id="polyline730"
     style="stroke-width:1;stroke-miterlimit:4;stroke-dasharray:6,6;stroke-dashoffset:0" />
  <line
     fill="#000000"
     stroke="#000000"
     stroke-width="1"
     x1="746"
     x2="734"
     y1="239"
     y2="246"
     id="line732" />
  <line
     fill="#000000"
     stroke="#000000"
     stroke-width="1"
     x1="746"
     x2="734"
     y1="253"
     y2="246"
     id="line734" />
  <text
     font-family="Dialog"
     font-size="12"
     x="783"
     y="241"
     id="text736">
gameRules</text>
  <line
     fill="#000000"
     stroke="#000000"
     stroke-width="1"
     x1="734"
     x2="752"
     y1="272"
     y2="272"
     id="line738" />
  <line
     fill="#000000"
     stroke="#000000"
     stroke-width="1"
     x1="752"
     x2="769"
     y1="272"
     y2="273"
     id="line740" />
  <line
     fill="#000000"
     stroke="#000000"
     stroke-width="1"
     x1="769"
     x2="783"
     y1="273"
     y2="274"
     id="line742" />
  <line
     fill="#000000"
     stroke="#000000"
     stroke-width="1"
     x1="783"
     x2="794"
     y1="274"
     y2="276"
     id="line744" />
  <line
     fill="#000000"
     stroke="#000000"
     stroke-width="1"
     x1="794"
     x2="802"
     y1="276"
     y2="278"
     id="line746" />
  <line
     fill="#000000"
     stroke="#000000"
     stroke-width="1"
     x1="802"
     x2="807"
     y1="278"
     y2="280"
     id="line748" />
  <line
     fill="#000000"
     stroke="#000000"
     stroke-width="1"
     x1="807"
     x2="808"
     y1="280"
     y2="281"
     id="line750" />
  <line
     fill="#000000"
     stroke="#000000"
     stroke-width="1"
     x1="808"
     x2="807"
     y1="281"
     y2="283"
     id="line752" />
  <line
     fill="#000000"
     stroke="#000000"
     stroke-width="1"
     x1="807"
     x2="802"
     y1="283"
     y2="285"
     id="line754" />
  <line
     fill="#000000"
     stroke="#000000"
     stroke-width="1"
     x1="802"
     x2="794"
     y1="285"
     y2="287"
     id="line756" />
  <line
     fill="#000000"
     stroke="#000000"
     stroke-width="1"
     x1="794"
     x2="775"
     y1="287"
     y2="288"
     id="line758" />
  <line
     fill="#000000"
     stroke="#000000"
     stroke-width="1"
     x1="775"
     x2="759"
     y1="288"
     y2="290"
     id="line760" />
  <line
     fill="#000000"
     stroke="#000000"
     stroke-width="1"
     x1="759"
     x2="745"
     y1="290"
     y2="291"
     id="line762" />
  <line
     fill="#000000"
     stroke="#000000"
     stroke-width="1"
     x1="745"
     x2="734"
     y1="291"
     y2="292"
     id="line764" />
  <polygon
     fill="#ffffff"
     points="734,292 746,285 746,299"
     stroke="#ffffff"
     stroke-width="1"
     id="polygon766" />
  <polygon
     fill="none"
     points="734,292 746,285 746,299"
     stroke="#000000"
     stroke-width="1"
     id="polygon768"
     style="fill:#000000;fill-opacity:1" />
  <text
     font-size="12"
     x="750.94543"
     y="304.88681"
     id="text770"
     style="font-size:12px;font-family:Dialog">digest(gameRules, testData)</text>
  <line
     fill="#000000"
     stroke="#000000"
     stroke-width="1"
     x1="734"
     x2="752"
     y1="322"
     y2="322"
     id="line772"
     style="stroke-width:1;stroke-miterlimit:4;stroke-dasharray:6,6;stroke-dashoffset:0" />
  <line
     fill="#000000"
     stroke="#000000"
     stroke-width="1"
     x1="752"
     x2="769"
     y1="322"
     y2="323"
     id="line774"
     style="stroke-width:1;stroke-miterlimit:4;stroke-dasharray:6,6;stroke-dashoffset:0" />
  <line
     fill="#000000"
     stroke="#000000"
     stroke-width="1"
     x1="769"
     x2="783"
     y1="323"
     y2="324"
     id="line776"
     style="stroke-width:1;stroke-miterlimit:4;stroke-dasharray:6,6;stroke-dashoffset:0" />
  <line
     fill="#000000"
     stroke="#000000"
     stroke-width="1"
     x1="783"
     x2="794"
     y1="324"
     y2="326"
     id="line778"
     style="stroke-width:1;stroke-miterlimit:4;stroke-dasharray:6,6;stroke-dashoffset:0" />
  <line
     fill="#000000"
     stroke="#000000"
     stroke-width="1"
     x1="794"
     x2="802"
     y1="326"
     y2="328"
     id="line780"
     style="stroke-width:1;stroke-miterlimit:4;stroke-dasharray:6,6;stroke-dashoffset:0" />
  <line
     fill="#000000"
     stroke="#000000"
     stroke-width="1"
     x1="802"
     x2="807"
     y1="328"
     y2="330"
     id="line782"
     style="stroke-width:1;stroke-miterlimit:4;stroke-dasharray:6,6;stroke-dashoffset:0" />
  <line
     fill="#000000"
     stroke="#000000"
     stroke-width="1"
     x1="807"
     x2="808"
     y1="330"
     y2="331"
     id="line784"
     style="stroke-width:1;stroke-miterlimit:4;stroke-dasharray:6,6;stroke-dashoffset:0" />
  <line
     fill="#000000"
     stroke="#000000"
     stroke-width="1"
     x1="808"
     x2="807"
     y1="331"
     y2="333"
     id="line786"
     style="stroke-width:1;stroke-miterlimit:4;stroke-dasharray:6,6;stroke-dashoffset:0" />
  <line
     fill="#000000"
     stroke="#000000"
     stroke-width="1"
     x1="807"
     x2="802"
     y1="333"
     y2="335"
     id="line788"
     style="stroke-width:1;stroke-miterlimit:4;stroke-dasharray:6,6;stroke-dashoffset:0" />
  <line
     fill="#000000"
     stroke="#000000"
     stroke-width="1"
     x1="802"
     x2="794"
     y1="335"
     y2="337"
     id="line790"
     style="stroke-width:1;stroke-miterlimit:4;stroke-dasharray:6,6;stroke-dashoffset:0" />
  <line
     fill="#000000"
     stroke="#000000"
     stroke-width="1"
     x1="794"
     x2="775"
     y1="337"
     y2="338"
     id="line792"
     style="stroke-width:1;stroke-miterlimit:4;stroke-dasharray:6,6;stroke-dashoffset:0" />
  <line
     fill="#000000"
     stroke="#000000"
     stroke-width="1"
     x1="775"
     x2="759"
     y1="338"
     y2="340"
     id="line794"
     style="stroke-width:1;stroke-miterlimit:4;stroke-dasharray:6,6;stroke-dashoffset:0" />
  <line
     fill="#000000"
     stroke="#000000"
     stroke-width="1"
     x1="759"
     x2="745"
     y1="340"
     y2="341"
     id="line796"
     style="stroke-width:1;stroke-miterlimit:4;stroke-dasharray:6,6;stroke-dashoffset:0" />
  <line
     fill="#000000"
     stroke="#000000"
     stroke-width="1"
     x1="745"
     x2="734"
     y1="341"
     y2="342"
     id="line798"
     style="stroke-width:1;stroke-miterlimit:4;stroke-dasharray:none;stroke-dashoffset:0" />
  <line
     fill="#000000"
     stroke="#000000"
     stroke-width="1"
     x1="746"
     x2="734"
     y1="335"
     y2="342"
     id="line800"
     style="stroke-width:1;stroke-miterlimit:4;stroke-dasharray:none;stroke-dashoffset:0" />
  <line
     fill="#000000"
     stroke="#000000"
     stroke-width="1"
     x1="746"
     x2="734"
     y1="349"
     y2="342"
     id="line802"
     style="stroke-width:1;stroke-miterlimit:4;stroke-dasharray:none;stroke-dashoffset:0" />
  <polyline
     fill="none"
     points="942,176 1258,176"
     stroke="#000000"
     stroke-width="1"
     id="polyline804" />
  <polygon
     fill="#000000"
     points="1258,176 1246,183 1246,169"
     stroke="#000000"
     stroke-width="1"
     id="polygon806" />
  <polygon
     fill="none"
     points="1258,176 1246,183 1246,169"
     stroke="#000000"
     stroke-width="1"
     id="polygon808" />
  <text
     font-family="Dialog"
     font-size="12"
     x="1055"
     y="171"
     id="text810">
REST request</text>
  <polyline
     fill="none"
     points="1258,226 942,226"
     stroke="#000000"
     stroke-width="1"
     id="polyline812"
     style="stroke-width:1;stroke-miterlimit:4;stroke-dasharray:6,6;stroke-dashoffset:0" />
  <line
     fill="#000000"
     stroke="#000000"
     stroke-width="1"
     x1="954"
     x2="942"
     y1="219"
     y2="226"
     id="line814" />
  <line
     fill="#000000"
     stroke="#000000"
     stroke-width="1"
     x1="954"
     x2="942"
     y1="233"
     y2="226"
     id="line816" />
  <polyline
     fill="none"
     points="942,448 1258,448"
     stroke="#000000"
     stroke-width="1"
     id="polyline818" />
  <polygon
     fill="#000000"
     points="1258,448 1246,455 1246,441"
     stroke="#000000"
     stroke-width="1"
     id="polygon820" />
  <polygon
     fill="none"
     points="1258,448 1246,455 1246,441"
     stroke="#000000"
     stroke-width="1"
     id="polygon822" />
  <text
     font-family="Dialog"
     font-size="12"
     x="1055"
     y="443"
     id="text824">
REST request</text>
  <polyline
     fill="none"
     points="1258,498 942,498"
     stroke="#000000"
     stroke-width="1"
     id="polyline826"
     style="stroke-width:1;stroke-miterlimit:4;stroke-dasharray:6,6;stroke-dashoffset:0" />
  <line
     fill="#000000"
     stroke="#000000"
     stroke-width="1"
     x1="954"
     x2="942"
     y1="491"
     y2="498"
     id="line828" />
  <line
     fill="#000000"
     stroke="#000000"
     stroke-width="1"
     x1="954"
     x2="942"
     y1="505"
     y2="498"
     id="line830" />
</svg>
